info,Link,time,offre,Entreprise,Loc
Data Engineer expérimenté     (H/F),https://candidat.pole-emploi.fr/offres/recherche/detail/110NJHX,2021-02-17T11:08:15.000Z,CDI,THELIO,69 - LYON 03
DÉVELOPPEUR PROJET BIG DATA (H/F),https://candidat.pole-emploi.fr/offres/recherche/detail/0711472,2021-02-16T05:48:08.000Z,CDI,Lab'solutec,69 - LYON 01
INGÉNIEUR BIG DATA (H/F),https://candidat.pole-emploi.fr/offres/recherche/detail/0711362,2021-02-16T05:47:42.000Z,CDI,voir annonce,69 - LYON 01
Ingénieur Devops Data F/H (H/F),https://candidat.pole-emploi.fr/offres/recherche/detail/0689291,2021-02-15T16:16:02.000Z,CDI,Fed It,69 - LYON 01
Consultant Data et BI Lyon F/H  (H/F),https://candidat.pole-emploi.fr/offres/recherche/detail/109CVQG,2021-01-08T15:43:35.000Z,CDI,THELIO,69 - LYON 01
