info,Link,Entreprise,time,offre,Loc,Longitude,Latitude
Développeur Frontend H/F,https://www.regionsjob.com/emplois/developpeur-frontend-h-f-5648317.html,Havana IT & Apps,24/01/2021,CDI,Lyon - 69,4.8150348,45.7688635
Cto H/F,https://www.regionsjob.com/emplois/cto-h-f-6296700.html,HC Resources,19/01/2021,CDI,Lyon - 69,4.8150348,45.7688635
Responsable d'Intervention Service et Maintenance H/F,https://www.regionsjob.com/emplois/responsable-d-intervention-service-et-maintenance-h-f-6620824.html,Job Link,11/02/2021,CDI,Mions - 69,4.9570975,45.6638963
Chargé de Communication H/F,https://www.regionsjob.com/emplois/charge-de-communication-h-f-6478221.html,Folan,01/02/2021,CDD,Rillieux-la-Pape - 69,4.8994366,45.823514
Data Engineer H/F,https://www.regionsjob.com/emplois/data-engineer-h-f-6642025.html,Davidson Consulting,12/02/2021,CDI,Lyon 6e - 69,4.800873944567477,45.70282745
AI Tech Lead,https://fr.indeed.com/voir-emploi?t=Ai+Technologie+Lead&c=Konecranes&l=Lyon+(69)&jk=db4a3e38080a62bb&rtk=1eunp57tkstht800&from=rss,"Fri, 05 Feb 2021 14:36:53 GMT",,Aryballe technologies,Lyon (69),4.8150348,45.7688635
Analog / RF IC design engineer,https://fr.indeed.com/voir-emploi?t=Analog&c=ASYGN&l=Grenoble+(38)&jk=e629f4700c1d5798&rtk=1eunp5ar4srho800&from=rss,"Mon, 01 Feb 2021 20:02:30 GMT",,BD,Grenoble (38),5.7109775,45.1879923
Application Engineer (m/f/d),https://fr.indeed.com/voir-emploi?t=Application+Engineer&c=FormFactor&l=Grenoble+(38)&jk=9524ca4c95b421ed&rtk=1eunp5g8ossv8800&from=rss,"Fri, 12 Feb 2021 10:26:57 GMT",,BD,Grenoble (38),5.7109775,45.1879923
Application Engineer (m/f/d),https://fr.indeed.com/voir-emploi?t=Application+Engineer&c=FormFactor&l=Grenoble+(38)&jk=9524ca4c95b421ed&rtk=1eunp5k7bsstn800&from=rss,"Fri, 12 Feb 2021 10:26:57 GMT",,Confirmé(e),Grenoble (38),5.7109775,45.1879923
Application Engineer (m/f/d),https://fr.indeed.com/voir-emploi?t=Application+Engineer&c=FormFactor&l=Grenoble+(38)&jk=9524ca4c95b421ed&rtk=1eunp5p2ass79800&from=rss,"Fri, 12 Feb 2021 10:26:57 GMT",,Criteo,Grenoble (38),5.7109775,45.1879923
Application Engineer (m/f/d),https://fr.indeed.com/voir-emploi?t=Application+Engineer&c=FormFactor&l=Grenoble+(38)&jk=9524ca4c95b421ed&rtk=1eunp5possrho800&from=rss,"Fri, 12 Feb 2021 10:26:57 GMT",,Entreprise,Grenoble (38),5.7109775,45.1879923
Application Engineer (m/f/d),https://fr.indeed.com/voir-emploi?t=Application+Engineer&c=FormFactor&l=Grenoble+(38)&jk=9524ca4c95b421ed&rtk=1eunp5unhstgi800&from=rss,"Fri, 12 Feb 2021 10:26:57 GMT",,FormFactor GmbH,Grenoble (38),5.7109775,45.1879923
Application Engineer (m/f/d),https://fr.indeed.com/voir-emploi?t=Application+Engineer&c=FormFactor&l=Grenoble+(38)&jk=9524ca4c95b421ed&rtk=1eunp5vegsu3o800&from=rss,"Fri, 12 Feb 2021 10:26:57 GMT",,HC RESOURCES,Grenoble (38),5.7109775,45.1879923
Application Engineer (m/f/d),https://fr.indeed.com/voir-emploi?t=Application+Engineer&c=FormFactor&l=Grenoble+(38)&jk=9524ca4c95b421ed&rtk=1eunp604rstcj801&from=rss,"Fri, 12 Feb 2021 10:26:57 GMT",,Kayentys,Grenoble (38),5.7109775,45.1879923
Application Engineer (m/f/d),https://fr.indeed.com/voir-emploi?t=Application+Engineer&c=FormFactor&l=Grenoble+(38)&jk=9524ca4c95b421ed&rtk=1eunp60qusstn800&from=rss,"Fri, 12 Feb 2021 10:26:57 GMT",,Lam Research,Grenoble (38),5.7109775,45.1879923
Application Engineer (m/f/d),https://fr.indeed.com/voir-emploi?t=Application+Engineer&c=FormFactor&l=Grenoble+(38)&jk=9524ca4c95b421ed&rtk=1eunp61g4ss79800&from=rss,"Fri, 12 Feb 2021 10:26:57 GMT",,Moody's Corporation,Grenoble (38),5.7109775,45.1879923
Application Engineer (m/f/d),https://fr.indeed.com/voir-emploi?t=Application+Engineer&c=FormFactor&l=Grenoble+(38)&jk=9524ca4c95b421ed&rtk=1eunp6251su3o800&from=rss,"Fri, 12 Feb 2021 10:26:57 GMT",,Novencia,Grenoble (38),5.7109775,45.1879923
Application Engineer (m/f/d),https://fr.indeed.com/voir-emploi?t=Application+Engineer&c=FormFactor&l=Grenoble+(38)&jk=9524ca4c95b421ed&rtk=1eunp62pq3jm1000&from=rss,"Fri, 12 Feb 2021 10:26:57 GMT",,Relyens,Grenoble (38),5.7109775,45.1879923
Application Engineer (m/f/d),https://fr.indeed.com/voir-emploi?t=Application+Engineer&c=FormFactor&l=Grenoble+(38)&jk=9524ca4c95b421ed&rtk=1eunp63g7stgi800&from=rss,"Fri, 12 Feb 2021 10:26:57 GMT",,Selescope,Grenoble (38),5.7109775,45.1879923
Practice Manager National Data & IA H/F,https://www.regionsjob.com/emplois/practice-manager-national-data-et-ia-h-f-6471543.html,SII Siège,01/02/2021,CDI,Lyon - 69,4.8150348,45.7688635
Application Engineer (m/f/d),https://fr.indeed.com/voir-emploi?t=Application+Engineer&c=FormFactor&l=Grenoble+(38)&jk=9524ca4c95b421ed&rtk=1eunp68ajsstn800&from=rss,"Fri, 12 Feb 2021 10:26:57 GMT",,SPX FLOW,Grenoble (38),5.7109775,45.1879923
Application Engineer (m/f/d),https://fr.indeed.com/voir-emploi?t=Application+Engineer&c=FormFactor&l=Grenoble+(38)&jk=9524ca4c95b421ed&rtk=1eunp690istht800&from=rss,"Fri, 12 Feb 2021 10:26:57 GMT",,Synopsys,Grenoble (38),5.7109775,45.1879923
Application Engineer (m/f/d),https://fr.indeed.com/voir-emploi?t=Application+Engineer&c=FormFactor&l=Grenoble+(38)&jk=9524ca4c95b421ed&rtk=1eunp69ks3jm1000&from=rss,"Fri, 12 Feb 2021 10:26:57 GMT",,Unifrax,Grenoble (38),5.7109775,45.1879923
APPLICATION ENGINEER II,https://fr.indeed.com/voir-emploi?t=Application+Engineer&c=SPX+FLOW&l=Annecy+(74)&jk=c20d1b74ef892d51&rtk=1eunp5fj4sti1800&from=rss,"Mon, 11 Nov 2019 20:28:50 GMT",,BD,Annecy (74),5.9421851,45.8671312
APPLICATION ENGINEER II,https://fr.indeed.com/voir-emploi?t=Application+Engineer&c=SPX+FLOW&l=Annecy+(74)&jk=c20d1b74ef892d51&rtk=1eunp5k7bsstn800&from=rss,"Mon, 11 Nov 2019 20:28:50 GMT",,Confirmé(e),Annecy (74),5.9421851,45.8671312
APPLICATION ENGINEER II,https://fr.indeed.com/voir-emploi?t=Application+Engineer&c=SPX+FLOW&l=Annecy+(74)&jk=c20d1b74ef892d51&rtk=1eunp5oe8sti1800&from=rss,"Mon, 11 Nov 2019 20:28:50 GMT",,Criteo,Annecy (74),5.9421851,45.8671312
APPLICATION ENGINEER II,https://fr.indeed.com/voir-emploi?t=Application+Engineer&c=SPX+FLOW&l=Annecy+(74)&jk=c20d1b74ef892d51&rtk=1eunp5p2ass79800&from=rss,"Mon, 11 Nov 2019 20:28:50 GMT",,Data Recrutement,Annecy (74),5.9421851,45.8671312
APPLICATION ENGINEER II,https://fr.indeed.com/voir-emploi?t=Application+Engineer&c=SPX+FLOW&l=Annecy+(74)&jk=c20d1b74ef892d51&rtk=1eunp5possrho800&from=rss,"Mon, 11 Nov 2019 20:28:50 GMT",,EPAM Systems,Annecy (74),5.9421851,45.8671312
APPLICATION ENGINEER II,https://fr.indeed.com/voir-emploi?t=Application+Engineer&c=SPX+FLOW&l=Annecy+(74)&jk=c20d1b74ef892d51&rtk=1eunp5unhstgi800&from=rss,"Mon, 11 Nov 2019 20:28:50 GMT",,FormFactor GmbH,Annecy (74),5.9421851,45.8671312
APPLICATION ENGINEER II,https://fr.indeed.com/voir-emploi?t=Application+Engineer&c=SPX+FLOW&l=Annecy+(74)&jk=c20d1b74ef892d51&rtk=1eunp5vegsu3o800&from=rss,"Mon, 11 Nov 2019 20:28:50 GMT",,IC Resources,Annecy (74),5.9421851,45.8671312
APPLICATION ENGINEER II,https://fr.indeed.com/voir-emploi?t=Application+Engineer&c=SPX+FLOW&l=Annecy+(74)&jk=c20d1b74ef892d51&rtk=1eunp604rstcj801&from=rss,"Mon, 11 Nov 2019 20:28:50 GMT",,Keyrus,Annecy (74),5.9421851,45.8671312
APPLICATION ENGINEER II,https://fr.indeed.com/voir-emploi?t=Application+Engineer&c=SPX+FLOW&l=Annecy+(74)&jk=c20d1b74ef892d51&rtk=1eunp60qusstn800&from=rss,"Mon, 11 Nov 2019 20:28:50 GMT",,Lam Research,Annecy (74),5.9421851,45.8671312
APPLICATION ENGINEER II,https://fr.indeed.com/voir-emploi?t=Application+Engineer&c=SPX+FLOW&l=Annecy+(74)&jk=c20d1b74ef892d51&rtk=1eunp61g4ss79800&from=rss,"Mon, 11 Nov 2019 20:28:50 GMT",,Moody's Corporation,Annecy (74),5.9421851,45.8671312
APPLICATION ENGINEER II,https://fr.indeed.com/voir-emploi?t=Application+Engineer&c=SPX+FLOW&l=Annecy+(74)&jk=c20d1b74ef892d51&rtk=1eunp6251su3o800&from=rss,"Mon, 11 Nov 2019 20:28:50 GMT",,OWENS CORNING,Annecy (74),5.9421851,45.8671312
APPLICATION ENGINEER II,https://fr.indeed.com/voir-emploi?t=Application+Engineer&c=SPX+FLOW&l=Annecy+(74)&jk=c20d1b74ef892d51&rtk=1eunp62pq3jm1000&from=rss,"Mon, 11 Nov 2019 20:28:50 GMT",,Saint-Gobain,Annecy (74),5.9421851,45.8671312
APPLICATION ENGINEER II,https://fr.indeed.com/voir-emploi?t=Application+Engineer&c=SPX+FLOW&l=Annecy+(74)&jk=c20d1b74ef892d51&rtk=1eunp63g7stgi800&from=rss,"Mon, 11 Nov 2019 20:28:50 GMT",,Sham,Annecy (74),5.9421851,45.8671312
APPLICATION ENGINEER II,https://fr.indeed.com/voir-emploi?t=Application+Engineer&c=SPX+FLOW&l=Annecy+(74)&jk=c20d1b74ef892d51&rtk=1eunp68ajsstn800&from=rss,"Mon, 11 Nov 2019 20:28:50 GMT",,SPX FLOW,Annecy (74),5.9421851,45.8671312
APPLICATION ENGINEER II,https://fr.indeed.com/voir-emploi?t=Application+Engineer&c=SPX+FLOW&l=Annecy+(74)&jk=c20d1b74ef892d51&rtk=1eunp690istht800&from=rss,"Mon, 11 Nov 2019 20:28:50 GMT",,TE Connectivity,Annecy (74),5.9421851,45.8671312
APPLICATION ENGINEER II,https://fr.indeed.com/voir-emploi?t=Application+Engineer&c=SPX+FLOW&l=Annecy+(74)&jk=c20d1b74ef892d51&rtk=1eunp69ks3jm1000&from=rss,"Mon, 11 Nov 2019 20:28:50 GMT",,Viavi Solutions,Annecy (74),5.9421851,45.8671312
Application Engineer: applicative Signal Processing & data scientist.,https://fr.indeed.com/voir-emploi?t=Application+Engineer&c=ARaymond&l=Grenoble+(38)&jk=b653e1f34b114382&rtk=1eunp5a3ostok800&from=rss,"Fri, 22 Jan 2021 19:07:20 GMT",,BD,Grenoble (38),5.7109775,45.1879923
Biomodeler: Computational Biology / Systems Biology Modeler,https://fr.indeed.com/voir-emploi?t=Biomodeler&c=Novadiscovery&l=Lyon+9e+(69)&jk=a85697c096b48763&rtk=1eunp5732su3o800&from=rss,"Thu, 22 Oct 2020 10:21:03 GMT",,Altair Engineering,Lyon 9e (69),4.8150348,45.7688635
Clinical Research Associate-Entry Level,https://fr.indeed.com/voir-emploi?t=Clinical+Research+Associate+Entry+Level&c=Medpace&l=Lyon+(69)&jk=5a5fa8e25c4f2672&rtk=1eunp58j2stmj800&from=rss,"Tue, 17 Nov 2020 17:15:43 GMT",,Aryballe technologies,Lyon (69),4.8150348,45.7688635
Cloud Data Engineer,https://fr.indeed.com/voir-emploi?t=Cloud+Data+Engineer&c=Business+%26+Decision&l=Lyon+(69)&jk=06a8b91a1136f10b&rtk=1eunp5fj4sti1800&from=rss,"Wed, 14 Oct 2020 14:44:51 GMT",,BD,Lyon H/F,4.864410374291091,45.771485049999995
Développeur Java - Angular H/F,https://www.regionsjob.com/emplois/developpeur-java-angular-h-f-6371023.html,Sword France,25/01/2021,CDI,Lyon 1er - 69,4.8150348,45.7688635
Cloud Data Engineer,https://fr.indeed.com/voir-emploi?t=Cloud+Data+Engineer&c=Business+%26+Decision&l=Lyon+(69)&jk=06a8b91a1136f10b&rtk=1eunp5k7bsstn800&from=rss,"Wed, 14 Oct 2020 14:44:51 GMT",,Confirmé(e),Lyon H/F,4.864410374291091,45.771485049999995
Cloud Data Engineer,https://fr.indeed.com/voir-emploi?t=Cloud+Data+Engineer&c=Business+%26+Decision&l=Lyon+(69)&jk=06a8b91a1136f10b&rtk=1eunp5oe8sti1800&from=rss,"Wed, 14 Oct 2020 14:44:51 GMT",,Criteo,Lyon H/F,4.864410374291091,45.771485049999995
Cloud Data Engineer,https://fr.indeed.com/voir-emploi?t=Cloud+Data+Engineer&c=Business+%26+Decision&l=Lyon+(69)&jk=06a8b91a1136f10b&rtk=1eunp5p2ass79800&from=rss,"Wed, 14 Oct 2020 14:44:51 GMT",,Développement Visualisation Web,Lyon H/F,4.864410374291091,45.771485049999995
Cloud Data Engineer,https://fr.indeed.com/voir-emploi?t=Cloud+Data+Engineer&c=Business+%26+Decision&l=Lyon+(69)&jk=06a8b91a1136f10b&rtk=1eunp5possrho800&from=rss,"Wed, 14 Oct 2020 14:44:51 GMT",,European Molecular Biology Laboratory,Lyon H/F,4.864410374291091,45.771485049999995
Cloud Data Engineer,https://fr.indeed.com/voir-emploi?t=Cloud+Data+Engineer&c=Business+%26+Decision&l=Lyon+(69)&jk=06a8b91a1136f10b&rtk=1eunp5u1ossv8800&from=rss,"Wed, 14 Oct 2020 14:44:51 GMT",,FormFactor GmbH,Lyon H/F,4.864410374291091,45.771485049999995
Cloud Data Engineer,https://fr.indeed.com/voir-emploi?t=Cloud+Data+Engineer&c=Business+%26+Decision&l=Lyon+(69)&jk=06a8b91a1136f10b&rtk=1eunp5unhstgi800&from=rss,"Wed, 14 Oct 2020 14:44:51 GMT",,Grenoble,Lyon H/F,4.864410374291091,45.771485049999995
Cloud Data Engineer,https://fr.indeed.com/voir-emploi?t=Cloud+Data+Engineer&c=Business+%26+Decision&l=Lyon+(69)&jk=06a8b91a1136f10b&rtk=1eunp5vegsu3o800&from=rss,"Wed, 14 Oct 2020 14:44:51 GMT",,Institut Paul Bocuse,Lyon H/F,4.864410374291091,45.771485049999995
Cloud Data Engineer,https://fr.indeed.com/voir-emploi?t=Cloud+Data+Engineer&c=Business+%26+Decision&l=Lyon+(69)&jk=06a8b91a1136f10b&rtk=1eunp604rstcj801&from=rss,"Wed, 14 Oct 2020 14:44:51 GMT",,Keyrus France,Lyon H/F,4.864410374291091,45.771485049999995
Cloud Data Engineer,https://fr.indeed.com/voir-emploi?t=Cloud+Data+Engineer&c=Business+%26+Decision&l=Lyon+(69)&jk=06a8b91a1136f10b&rtk=1eunp60qusstn800&from=rss,"Wed, 14 Oct 2020 14:44:51 GMT",,Lizeo Group,Lyon H/F,4.864410374291091,45.771485049999995
Cloud Data Engineer,https://fr.indeed.com/voir-emploi?t=Cloud+Data+Engineer&c=Business+%26+Decision&l=Lyon+(69)&jk=06a8b91a1136f10b&rtk=1eunp61g4ss79800&from=rss,"Wed, 14 Oct 2020 14:44:51 GMT",,Moody's Corporation,Lyon H/F,4.864410374291091,45.771485049999995
Cloud Data Engineer,https://fr.indeed.com/voir-emploi?t=Cloud+Data+Engineer&c=Business+%26+Decision&l=Lyon+(69)&jk=06a8b91a1136f10b&rtk=1eunp6251su3o800&from=rss,"Wed, 14 Oct 2020 14:44:51 GMT",,PayXpert,Lyon H/F,4.864410374291091,45.771485049999995
Cloud Data Engineer,https://fr.indeed.com/voir-emploi?t=Cloud+Data+Engineer&c=Business+%26+Decision&l=Lyon+(69)&jk=06a8b91a1136f10b&rtk=1eunp62pq3jm1000&from=rss,"Wed, 14 Oct 2020 14:44:51 GMT",,Salesforce,Lyon H/F,4.864410374291091,45.771485049999995
Cloud Data Engineer,https://fr.indeed.com/voir-emploi?t=Cloud+Data+Engineer&c=Business+%26+Decision&l=Lyon+(69)&jk=06a8b91a1136f10b&rtk=1eunp63g7stgi800&from=rss,"Wed, 14 Oct 2020 14:44:51 GMT",,SHAPE IT,Lyon H/F,4.864410374291091,45.771485049999995
Cloud Data Engineer,https://fr.indeed.com/voir-emploi?t=Cloud+Data+Engineer&c=Business+%26+Decision&l=Lyon+(69)&jk=06a8b91a1136f10b&rtk=1eunp66c6ssv8800&from=rss,"Wed, 14 Oct 2020 14:44:51 GMT",,SPX FLOW,Lyon H/F,4.864410374291091,45.771485049999995
Data Analyst H/F,https://www.regionsjob.com/emplois/data-analyst-h-f-6623571.html,Fiducial,11/02/2021,CDI,Lyon - 69,4.8150348,45.7688635
Cloud Data Engineer,https://fr.indeed.com/voir-emploi?t=Cloud+Data+Engineer&c=Business+%26+Decision&l=Lyon+(69)&jk=06a8b91a1136f10b&rtk=1eunp68ajsstn800&from=rss,"Wed, 14 Oct 2020 14:44:51 GMT",,STMicroelectronics,Lyon H/F,4.864410374291091,45.771485049999995
Cloud Data Engineer,https://fr.indeed.com/voir-emploi?t=Cloud+Data+Engineer&c=Business+%26+Decision&l=Lyon+(69)&jk=06a8b91a1136f10b&rtk=1eunp690istht800&from=rss,"Wed, 14 Oct 2020 14:44:51 GMT",,TE Connectivity,Lyon H/F,4.864410374291091,45.771485049999995
Cloud Data Engineer,https://fr.indeed.com/voir-emploi?t=Cloud+Data+Engineer&c=Business+%26+Decision&l=Lyon+(69)&jk=06a8b91a1136f10b&rtk=1eunp69ks3jm1000&from=rss,"Wed, 14 Oct 2020 14:44:51 GMT",,Viavi Solutions,Lyon H/F,4.864410374291091,45.771485049999995
Condition Monitoring Data Engineer (H/F),https://fr.indeed.com/voir-emploi?t=Condition+Monitoring+Data+Engineer&c=ALSTOM&l=Villeurbanne+(69)&jk=f72c1418040384d6&rtk=1eunp5732su3o800&from=rss,"Mon, 04 May 2020 16:10:20 GMT",,Aryballe technologies,Villeurbanne (69),4.886899,45.7733124
Condition Monitoring deployment engineer (H/F) 1 1,https://fr.indeed.com/voir-emploi?t=Condition+Monitoring+Deployment+Engineer&c=ALSTOM&l=Villeurbanne+(69)&jk=bd519f2479a4dd9b&rtk=1eunp5732su3o800&from=rss,"Mon, 04 May 2020 16:10:21 GMT",,Aryballe technologies,Villeurbanne (69),4.886899,45.7733124
Culinary chef R&D (F/H),https://fr.indeed.com/voir-emploi?t=Culinary+Chef+R&c=Institut+Paul+Bocuse&l=%C3%89cully+(69)&jk=931b1d65444f52e9&rtk=1eunp5732su3o800&from=rss,"Tue, 28 Jan 2020 08:35:50 GMT",,ARaymond,Écully (69),4.7785644,45.7754498
Customer Claims Engineer M/F,https://fr.indeed.com/voir-emploi?t=Customer+Claims+Engineer+M+F&c=ABB&l=Chassieu+(69)&jk=a229ed1baa314fcf&rtk=1eunp59ausstn800&from=rss,"Tue, 05 Jan 2021 12:59:16 GMT",,Aryballe technologies,Chassieu (69),4.9681796,45.7422756
DATA ENGINEER,https://fr.indeed.com/voir-emploi?t=Data+Engineer&c=Relyens&l=Lyon+(69)&jk=9fb9123bca0fc0b9&rtk=1eunp58j2stmj800&from=rss,"Thu, 10 Dec 2020 15:10:45 GMT",,Aryballe technologies,Lyon (69),4.8150348,45.7688635
Data Engineer (F/H),https://fr.indeed.com/voir-emploi?t=Data+Engineer&c=Novencia&l=Lyon+(69)&jk=fadee4b45e069468&rtk=1eunp58j2stmj800&from=rss,"Wed, 09 Sep 2020 18:58:24 GMT",,Aryballe technologies,Lyon (69),4.8150348,45.7688635
Data engineer (IT),https://fr.indeed.com/voir-emploi?t=Data+Engineer&c=Savane+Consulting&l=Lyon+(69)&jk=6af6460365af40c9&rtk=1eunp57tkstht800&from=rss,"Tue, 12 Jan 2021 09:50:45 GMT",,Aryballe technologies,Lyon (69),4.8150348,45.7688635
"Data engineer (Spark, docker, java) / AWS / Freelance",https://fr.indeed.com/voir-emploi?t=Data+Engineer&c=Ka%C3%AFbee&l=Lyon+(69)&jk=7c11a50be20b60f5&rtk=1eunp57tkstht800&from=rss,"Wed, 27 Jan 2021 11:07:57 GMT",,Aryballe technologies,Lyon (69),4.8150348,45.7688635
Data Engineer AWS / Freelance,https://fr.indeed.com/voir-emploi?t=Data+Engineer+Aws&c=SWORD&l=Lyon+(69)&jk=c2b7f420b52b4fab&rtk=1eunp57tkstht800&from=rss,"Wed, 13 Jan 2021 17:06:21 GMT",,Aryballe technologies,Lyon (69),4.8150348,45.7688635
Data Engineer F/H,https://fr.indeed.com/voir-emploi?t=Data+Engineer+F+H&c=Lizeo&l=Lyon+(69)&jk=e78647c6dfb9c24e&rtk=1eunp58j2stmj800&from=rss,"Wed, 13 May 2020 14:37:46 GMT",,Aryballe technologies,Lyon (69),4.8150348,45.7688635
Data Engineer H/F,https://fr.indeed.com/voir-emploi?t=Data+Engineer&c=Devoteam&l=Lyon+(69)&jk=0f4a106a2c84b8c6&rtk=1eunp57tkstht800&from=rss,"Wed, 13 Jan 2021 00:44:41 GMT",,Aryballe technologies,Lyon (69),4.8150348,45.7688635
Data Engineer H/f,https://fr.indeed.com/voir-emploi?t=Data+Engineer&c=HC+RESOURCES&l=Grenoble+(38)&jk=6fedec694e41ce75&rtk=1eunp5a3ostok800&from=rss,"Sat, 23 Jan 2021 03:08:24 GMT",,BD,Grenoble (38),5.7109775,45.1879923
Data Engineer h/f – CDI,https://fr.indeed.com/voir-emploi?t=Data+Engineer+CDI&c=Selescope&l=Lyon+(69)&jk=3c63d6ed2754797a&rtk=1eunp58j2stmj800&from=rss,"Mon, 14 Dec 2020 11:04:26 GMT",,Aryballe technologies,Lyon (69),4.8150348,45.7688635
Data Engineer H/F (Lyon),https://fr.indeed.com/voir-emploi?t=Data+Engineer&c=Keyrus&l=Lyon+(69)&jk=b737cadfb9afba2d&rtk=1eunp57tkstht800&from=rss,"Mon, 11 Jan 2021 15:48:45 GMT",,Aryballe technologies,Lyon (69),4.8150348,45.7688635
DATA SCIENTIST,https://fr.indeed.com/voir-emploi?t=Data+Scientist&c=Groupe+SEB&l=%C3%89cully+(69)&jk=912c7228b146b7b2&rtk=1eunp5732su3o800&from=rss,"Thu, 01 Oct 2020 23:55:22 GMT",,Antidot,Écully (69),4.7785644,45.7754498
Data Scientist,https://fr.indeed.com/voir-emploi?t=Data+Scientist&c=Adisseo&l=Lyon+(69)&jk=3feb1a54298511ac&rtk=1eunp57tkstht800&from=rss,"Tue, 12 Jan 2021 20:57:35 GMT",,Aryballe technologies,Lyon (69),4.8150348,45.7688635
Data Scientist F/M,https://fr.indeed.com/voir-emploi?t=Data+Scientist+F+M&c=Schneider+Electric&l=Grenoble+(38)&jk=0841a5201e67a41b&rtk=1eunp5a3ostok800&from=rss,"Mon, 15 Feb 2021 11:56:39 GMT",,BD,Grenoble (38),5.7109775,45.1879923
DATA SCIENTIST-ENGINEER (H/F),https://fr.indeed.com/voir-emploi?t=Data+Scientist+Engineer&c=Axance&l=Lyon+(69)&jk=6ee49ea70323f17b&rtk=1eunp59ausstn800&from=rss,"Thu, 05 Dec 2019 11:23:12 GMT",,Aryballe technologies,Lyon (69),4.8150348,45.7688635
Data Tech Lead F/H,https://fr.indeed.com/voir-emploi?t=Data+Technologie+Lead+F+H&c=Th%C3%A9lio&l=Lyon+(69)&jk=270e9e2598534cee&rtk=1eunp58j2stmj800&from=rss,"Wed, 17 Jun 2020 17:56:02 GMT",,Aryballe technologies,Lyon (69),4.8150348,45.7688635
Delivery Manager,https://fr.indeed.com/voir-emploi?t=Delivery+Manager&c=EPAM+Systems&l=Lyon+(69)&jk=c7d65c0f6b0ee2e5&rtk=1eunp58j2stmj800&from=rss,"Tue, 22 Sep 2020 10:16:15 GMT",,Aryballe technologies,Lyon (69),4.8150348,45.7688635
Développeur Frontend l Startup l Investissement l Lyon l 38/42k€,https://fr.indeed.com/voir-emploi?t=D%C3%A9veloppeur+Frontend+L+Startup+L+Investissement+L+L&c=Data+Recrutement&l=Lyon+(69)&jk=6239065a9e16a6da&rtk=1eunp58j2stmj800&from=rss,"Mon, 14 Sep 2020 19:41:18 GMT",,Aryballe technologies,Lyon (69),4.8150348,45.7688635
Device & Yield Engineering Image Sensors Crolles300mm M/F M/F,https://fr.indeed.com/voir-emploi?t=Device+Yield+Engineering+Image+Sensors+M+F+M+F&c=STMicroelectronics&l=Crolles+(38)&jk=31fed2ad2688d5db&rtk=1eunp59ausstn800&from=rss,"Tue, 17 Nov 2020 17:04:56 GMT",,BD,Crolles (38),5.8839432,45.2845907
DevOps AWS / Freelance,https://fr.indeed.com/voir-emploi?t=Devops+Aws&c=SWORD&l=Lyon+(69)&jk=6c0d4edbf7f21197&rtk=1eunp57tkstht800&from=rss,"Thu, 28 Jan 2021 11:06:17 GMT",,Aryballe technologies,Lyon (69),4.8150348,45.7688635
DevOps Engineer H/F,https://fr.indeed.com/voir-emploi?t=Devops+Engineer&c=Klanik&l=Lyon+(69)&jk=f7ed4049cbe866d4&rtk=1eunp59ausstn800&from=rss,"Fri, 09 Aug 2019 15:56:26 GMT",,Aryballe technologies,Lyon (69),4.8150348,45.7688635
Drug Combination Product testing engineer,https://fr.indeed.com/voir-emploi?t=Drug+Combination+Product+Testing+Engineer&c=BD&l=Le+Pont-de-Claix+(38)&jk=79368b71d8263f97&rtk=1eunp5g8ossv8800&from=rss,"Sat, 14 Nov 2020 11:41:05 GMT",,BD,Le Pont-de-Claix (38),5.6978136,45.1236837
Drug Combination Product testing engineer,https://fr.indeed.com/voir-emploi?t=Drug+Combination+Product+Testing+Engineer&c=BD&l=Le+Pont-de-Claix+(38)&jk=79368b71d8263f97&rtk=1eunp5k7bsstn800&from=rss,"Sat, 14 Nov 2020 11:41:05 GMT",,Confirmé(e),Le Pont-de-Claix (38),5.6978136,45.1236837
Drug Combination Product testing engineer,https://fr.indeed.com/voir-emploi?t=Drug+Combination+Product+Testing+Engineer&c=BD&l=Le+Pont-de-Claix+(38)&jk=79368b71d8263f97&rtk=1eunp5p2ass79800&from=rss,"Sat, 14 Nov 2020 11:41:05 GMT",,Criteo,Le Pont-de-Claix (38),5.6978136,45.1236837
Drug Combination Product testing engineer,https://fr.indeed.com/voir-emploi?t=Drug+Combination+Product+Testing+Engineer&c=BD&l=Le+Pont-de-Claix+(38)&jk=79368b71d8263f97&rtk=1eunp5possrho800&from=rss,"Sat, 14 Nov 2020 11:41:05 GMT",,Enerdata,Le Pont-de-Claix (38),5.6978136,45.1236837
Drug Combination Product testing engineer,https://fr.indeed.com/voir-emploi?t=Drug+Combination+Product+Testing+Engineer&c=BD&l=Le+Pont-de-Claix+(38)&jk=79368b71d8263f97&rtk=1eunp5unhstgi800&from=rss,"Sat, 14 Nov 2020 11:41:05 GMT",,FormFactor GmbH,Le Pont-de-Claix (38),5.6978136,45.1236837
Drug Combination Product testing engineer,https://fr.indeed.com/voir-emploi?t=Drug+Combination+Product+Testing+Engineer&c=BD&l=Le+Pont-de-Claix+(38)&jk=79368b71d8263f97&rtk=1eunp5vegsu3o800&from=rss,"Sat, 14 Nov 2020 11:41:05 GMT",,HAVANA IT & APPS,Le Pont-de-Claix (38),5.6978136,45.1236837
Drug Combination Product testing engineer,https://fr.indeed.com/voir-emploi?t=Drug+Combination+Product+Testing+Engineer&c=BD&l=Le+Pont-de-Claix+(38)&jk=79368b71d8263f97&rtk=1eunp604rstcj801&from=rss,"Sat, 14 Nov 2020 11:41:05 GMT",,Kayentis,Le Pont-de-Claix (38),5.6978136,45.1236837
Drug Combination Product testing engineer,https://fr.indeed.com/voir-emploi?t=Drug+Combination+Product+Testing+Engineer&c=BD&l=Le+Pont-de-Claix+(38)&jk=79368b71d8263f97&rtk=1eunp60qusstn800&from=rss,"Sat, 14 Nov 2020 11:41:05 GMT",,Lam Research,Le Pont-de-Claix (38),5.6978136,45.1236837
Drug Combination Product testing engineer,https://fr.indeed.com/voir-emploi?t=Drug+Combination+Product+Testing+Engineer&c=BD&l=Le+Pont-de-Claix+(38)&jk=79368b71d8263f97&rtk=1eunp61g4ss79800&from=rss,"Sat, 14 Nov 2020 11:41:05 GMT",,"Medpace, Inc.",Le Pont-de-Claix (38),5.6978136,45.1236837
Drug Combination Product testing engineer,https://fr.indeed.com/voir-emploi?t=Drug+Combination+Product+Testing+Engineer&c=BD&l=Le+Pont-de-Claix+(38)&jk=79368b71d8263f97&rtk=1eunp6251su3o800&from=rss,"Sat, 14 Nov 2020 11:41:05 GMT",,Novadiscovery,Le Pont-de-Claix (38),5.6978136,45.1236837
Drug Combination Product testing engineer,https://fr.indeed.com/voir-emploi?t=Drug+Combination+Product+Testing+Engineer&c=BD&l=Le+Pont-de-Claix+(38)&jk=79368b71d8263f97&rtk=1eunp62pq3jm1000&from=rss,"Sat, 14 Nov 2020 11:41:05 GMT",,PULSALYS,Le Pont-de-Claix (38),5.6978136,45.1236837
Drug Combination Product testing engineer,https://fr.indeed.com/voir-emploi?t=Drug+Combination+Product+Testing+Engineer&c=BD&l=Le+Pont-de-Claix+(38)&jk=79368b71d8263f97&rtk=1eunp63g7stgi800&from=rss,"Sat, 14 Nov 2020 11:41:05 GMT",,Selescope,Le Pont-de-Claix (38),5.6978136,45.1236837
Drug Combination Product testing engineer,https://fr.indeed.com/voir-emploi?t=Drug+Combination+Product+Testing+Engineer&c=BD&l=Le+Pont-de-Claix+(38)&jk=79368b71d8263f97&rtk=1eunp68ajsstn800&from=rss,"Sat, 14 Nov 2020 11:41:05 GMT",,SPX FLOW,Le Pont-de-Claix (38),5.6978136,45.1236837
Drug Combination Product testing engineer,https://fr.indeed.com/voir-emploi?t=Drug+Combination+Product+Testing+Engineer&c=BD&l=Le+Pont-de-Claix+(38)&jk=79368b71d8263f97&rtk=1eunp690istht800&from=rss,"Sat, 14 Nov 2020 11:41:05 GMT",,SWORD,Le Pont-de-Claix (38),5.6978136,45.1236837
Drug Combination Product testing engineer,https://fr.indeed.com/voir-emploi?t=Drug+Combination+Product+Testing+Engineer&c=BD&l=Le+Pont-de-Claix+(38)&jk=79368b71d8263f97&rtk=1eunp69ks3jm1000&from=rss,"Sat, 14 Nov 2020 11:41:05 GMT",,Umanis,Le Pont-de-Claix (38),5.6978136,45.1236837
Embedded Software Development Engineer,https://fr.indeed.com/voir-emploi?t=Embedded+Software+Development+Engineer&c=Viavi+Solutions&l=Saint-%C3%89tienne+(42)&jk=e6a30fd6c7706749&rtk=1eunp59ausstn800&from=rss,"Wed, 03 Feb 2021 12:40:03 GMT",,ASYGN,Saint-Étienne (42),4.3873058,45.4401467
Embedded Systems Engineer,https://fr.indeed.com/voir-emploi?t=Embedded+Systems+Engineer&c=ASYGN&l=Grenoble+(38)&jk=f344376b5a8827c3&rtk=1eunp5ar4srho800&from=rss,"Mon, 01 Feb 2021 20:02:30 GMT",,BD,Grenoble (38),5.7109775,45.1879923
Etching & Deposition Software Engineer,https://fr.indeed.com/voir-emploi?t=Etching+Deposition+Software+Engineer&c=Silvaco&l=Montbonnot-Saint-Martin+(38)&jk=3bd175ec905f0ade&rtk=1eunp5a3ostok800&from=rss,"Thu, 07 Jan 2021 16:25:09 GMT",,BD,Montbonnot-Saint-Martin (38),5.80266,45.2264498
FIELD APPLICATION ENGINEER,https://fr.indeed.com/voir-emploi?t=Field+Application+Engineer&c=Aryballe+technologies&l=Grenoble+(38)&jk=f6a43a8d256e1add&rtk=1eunp5g8ossv8800&from=rss,"Mon, 15 Jun 2020 10:09:14 GMT",,BD,Grenoble (38),5.7109775,45.1879923
FIELD APPLICATION ENGINEER,https://fr.indeed.com/voir-emploi?t=Field+Application+Engineer&c=Aryballe+technologies&l=Grenoble+(38)&jk=f6a43a8d256e1add&rtk=1eunp5ktg3jm1000&from=rss,"Mon, 15 Jun 2020 10:09:14 GMT",,Confirmé(e),Grenoble (38),5.7109775,45.1879923
FIELD APPLICATION ENGINEER,https://fr.indeed.com/voir-emploi?t=Field+Application+Engineer&c=Aryballe+technologies&l=Grenoble+(38)&jk=f6a43a8d256e1add&rtk=1eunp5p2ass79800&from=rss,"Mon, 15 Jun 2020 10:09:14 GMT",,Criteo,Grenoble (38),5.7109775,45.1879923
FIELD APPLICATION ENGINEER,https://fr.indeed.com/voir-emploi?t=Field+Application+Engineer&c=Aryballe+technologies&l=Grenoble+(38)&jk=f6a43a8d256e1add&rtk=1eunp5possrho800&from=rss,"Mon, 15 Jun 2020 10:09:14 GMT",,Devoteam,Grenoble (38),5.7109775,45.1879923
FIELD APPLICATION ENGINEER,https://fr.indeed.com/voir-emploi?t=Field+Application+Engineer&c=Aryballe+technologies&l=Grenoble+(38)&jk=f6a43a8d256e1add&rtk=1eunp5qegstec800&from=rss,"Mon, 15 Jun 2020 10:09:14 GMT",,Evotec,Grenoble (38),5.7109775,45.1879923
FIELD APPLICATION ENGINEER,https://fr.indeed.com/voir-emploi?t=Field+Application+Engineer&c=Aryballe+technologies&l=Grenoble+(38)&jk=f6a43a8d256e1add&rtk=1eunp5unhstgi800&from=rss,"Mon, 15 Jun 2020 10:09:14 GMT",,FormFactor GmbH,Grenoble (38),5.7109775,45.1879923
FIELD APPLICATION ENGINEER,https://fr.indeed.com/voir-emploi?t=Field+Application+Engineer&c=Aryballe+technologies&l=Grenoble+(38)&jk=f6a43a8d256e1add&rtk=1eunp5vegsu3o800&from=rss,"Mon, 15 Jun 2020 10:09:14 GMT",,Grenoble Ecole de Management,Grenoble (38),5.7109775,45.1879923
FIELD APPLICATION ENGINEER,https://fr.indeed.com/voir-emploi?t=Field+Application+Engineer&c=Aryballe+technologies&l=Grenoble+(38)&jk=f6a43a8d256e1add&rtk=1eunp604rstcj801&from=rss,"Mon, 15 Jun 2020 10:09:14 GMT",,Institut Paul Bocuse,Grenoble (38),5.7109775,45.1879923
FIELD APPLICATION ENGINEER,https://fr.indeed.com/voir-emploi?t=Field+Application+Engineer&c=Aryballe+technologies&l=Grenoble+(38)&jk=f6a43a8d256e1add&rtk=1eunp60qusstn800&from=rss,"Mon, 15 Jun 2020 10:09:14 GMT",,Klanik,Grenoble (38),5.7109775,45.1879923
FIELD APPLICATION ENGINEER,https://fr.indeed.com/voir-emploi?t=Field+Application+Engineer&c=Aryballe+technologies&l=Grenoble+(38)&jk=f6a43a8d256e1add&rtk=1eunp61g4ss79800&from=rss,"Mon, 15 Jun 2020 10:09:14 GMT",,MaaT Pharma,Grenoble (38),5.7109775,45.1879923
FIELD APPLICATION ENGINEER,https://fr.indeed.com/voir-emploi?t=Field+Application+Engineer&c=Aryballe+technologies&l=Grenoble+(38)&jk=f6a43a8d256e1add&rtk=1eunp6251su3o800&from=rss,"Mon, 15 Jun 2020 10:09:14 GMT",,Moody's Corporation,Grenoble (38),5.7109775,45.1879923
FIELD APPLICATION ENGINEER,https://fr.indeed.com/voir-emploi?t=Field+Application+Engineer&c=Aryballe+technologies&l=Grenoble+(38)&jk=f6a43a8d256e1add&rtk=1eunp62pq3jm1000&from=rss,"Mon, 15 Jun 2020 10:09:14 GMT",,Persee,Grenoble (38),5.7109775,45.1879923
FIELD APPLICATION ENGINEER,https://fr.indeed.com/voir-emploi?t=Field+Application+Engineer&c=Aryballe+technologies&l=Grenoble+(38)&jk=f6a43a8d256e1add&rtk=1eunp63g7stgi800&from=rss,"Mon, 15 Jun 2020 10:09:14 GMT",,Sanofi,Grenoble (38),5.7109775,45.1879923
FIELD APPLICATION ENGINEER,https://fr.indeed.com/voir-emploi?t=Field+Application+Engineer&c=Aryballe+technologies&l=Grenoble+(38)&jk=f6a43a8d256e1add&rtk=1eunp648gstcj800&from=rss,"Mon, 15 Jun 2020 10:09:14 GMT",,"Silvaco, Inc.",Grenoble (38),5.7109775,45.1879923
FIELD APPLICATION ENGINEER,https://fr.indeed.com/voir-emploi?t=Field+Application+Engineer&c=Aryballe+technologies&l=Grenoble+(38)&jk=f6a43a8d256e1add&rtk=1eunp68ajsstn800&from=rss,"Mon, 15 Jun 2020 10:09:14 GMT",,SPX FLOW,Grenoble (38),5.7109775,45.1879923
FIELD APPLICATION ENGINEER,https://fr.indeed.com/voir-emploi?t=Field+Application+Engineer&c=Aryballe+technologies&l=Grenoble+(38)&jk=f6a43a8d256e1add&rtk=1eunp690istht800&from=rss,"Mon, 15 Jun 2020 10:09:14 GMT",,STMicroelectronics,Grenoble (38),5.7109775,45.1879923
FIELD APPLICATION ENGINEER,https://fr.indeed.com/voir-emploi?t=Field+Application+Engineer&c=Aryballe+technologies&l=Grenoble+(38)&jk=f6a43a8d256e1add&rtk=1eunp69ks3jm1000&from=rss,"Mon, 15 Jun 2020 10:09:14 GMT",,Thélio,Grenoble (38),5.7109775,45.1879923
FR Field Process Engineer 1,https://fr.indeed.com/voir-emploi?t=Fr+Field+Process+Engineer&c=Lam+Research&l=Meylan+(38)&jk=c1e178c81ecc6412&rtk=1eunp5a3ostok800&from=rss,"Tue, 12 Jan 2021 13:55:55 GMT",,BD,Meylan (38),5.7811983,45.2092471
FR Field Service Engineer 2,https://fr.indeed.com/voir-emploi?t=Fr+Field+Service+Engineer&c=Lam+Research&l=Meylan+(38)&jk=5bed9957a93af553&rtk=1eunp5a3ostok800&from=rss,"Tue, 12 Jan 2021 13:55:56 GMT",,BD,Meylan (38),5.7811983,45.2092471
FR Staff Field Service Engineer,https://fr.indeed.com/voir-emploi?t=Fr+Staff+Field+Service+Engineer&c=Lam+Research&l=Meylan+(38)&jk=9cf20f9ebaed0a90&rtk=1eunp5a3ostok800&from=rss,"Tue, 12 Jan 2021 13:55:57 GMT",,BD,Meylan (38),5.7811983,45.2092471
Front-End Tech Lead,https://fr.indeed.com/voir-emploi?t=Front+End+Technologie+Lead&c=Content+Square&l=Lyon+(69)&jk=33e9535f2c7d76ba&rtk=1eunp58j2stmj800&from=rss,"Mon, 16 Nov 2020 09:34:11 GMT",,Aryballe technologies,Lyon (69),4.8150348,45.7688635
Full-Stack Software Engineer,https://fr.indeed.com/voir-emploi?t=Full+Stack+Software+Engineer&c=Criteo&l=Grenoble+(38)&jk=86fb651446f06c76&rtk=1eunp5g8ossv8800&from=rss,"Fri, 31 Jan 2020 10:42:01 GMT",,BD,Grenoble (38),5.7109775,45.1879923
Full-Stack Software Engineer,https://fr.indeed.com/voir-emploi?t=Full+Stack+Software+Engineer&c=Criteo&l=Grenoble+(38)&jk=86fb651446f06c76&rtk=1eunp5k7bsstn800&from=rss,"Fri, 31 Jan 2020 10:42:01 GMT",,Confirmé(e),Grenoble (38),5.7109775,45.1879923
Full-Stack Software Engineer,https://fr.indeed.com/voir-emploi?t=Full+Stack+Software+Engineer&c=Criteo&l=Grenoble+(38)&jk=86fb651446f06c76&rtk=1eunp5ktg3jm1000&from=rss,"Fri, 31 Jan 2020 10:42:01 GMT",,Content Square,Grenoble (38),5.7109775,45.1879923
Full-Stack Software Engineer,https://fr.indeed.com/voir-emploi?t=Full+Stack+Software+Engineer&c=Criteo&l=Grenoble+(38)&jk=86fb651446f06c76&rtk=1eunp5p2ass79800&from=rss,"Fri, 31 Jan 2020 10:42:01 GMT",,Criteo,Grenoble (38),5.7109775,45.1879923
Full-Stack Software Engineer,https://fr.indeed.com/voir-emploi?t=Full+Stack+Software+Engineer&c=Criteo&l=Grenoble+(38)&jk=86fb651446f06c76&rtk=1eunp5possrho800&from=rss,"Fri, 31 Jan 2020 10:42:01 GMT",,Edwards SAS,Grenoble (38),5.7109775,45.1879923
Full-Stack Software Engineer,https://fr.indeed.com/voir-emploi?t=Full+Stack+Software+Engineer&c=Criteo&l=Grenoble+(38)&jk=86fb651446f06c76&rtk=1eunp5qegstec800&from=rss,"Fri, 31 Jan 2020 10:42:01 GMT",,Extia,Grenoble (38),5.7109775,45.1879923
Full-Stack Software Engineer,https://fr.indeed.com/voir-emploi?t=Full+Stack+Software+Engineer&c=Criteo&l=Grenoble+(38)&jk=86fb651446f06c76&rtk=1eunp5unhstgi800&from=rss,"Fri, 31 Jan 2020 10:42:01 GMT",,FormFactor GmbH,Grenoble (38),5.7109775,45.1879923
Full-Stack Software Engineer,https://fr.indeed.com/voir-emploi?t=Full+Stack+Software+Engineer&c=Criteo&l=Grenoble+(38)&jk=86fb651446f06c76&rtk=1eunp5vegsu3o800&from=rss,"Fri, 31 Jan 2020 10:42:01 GMT",,Groupe SEB,Grenoble (38),5.7109775,45.1879923
Full-Stack Software Engineer,https://fr.indeed.com/voir-emploi?t=Full+Stack+Software+Engineer&c=Criteo&l=Grenoble+(38)&jk=86fb651446f06c76&rtk=1eunp604rstcj801&from=rss,"Fri, 31 Jan 2020 10:42:01 GMT",,Intel,Grenoble (38),5.7109775,45.1879923
Full-Stack Software Engineer,https://fr.indeed.com/voir-emploi?t=Full+Stack+Software+Engineer&c=Criteo&l=Grenoble+(38)&jk=86fb651446f06c76&rtk=1eunp60qusstn800&from=rss,"Fri, 31 Jan 2020 10:42:01 GMT",,Klanik,Grenoble (38),5.7109775,45.1879923
Full-Stack Software Engineer,https://fr.indeed.com/voir-emploi?t=Full+Stack+Software+Engineer&c=Criteo&l=Grenoble+(38)&jk=86fb651446f06c76&rtk=1eunp61g4ss79800&from=rss,"Fri, 31 Jan 2020 10:42:01 GMT",,MaaT Pharma,Grenoble (38),5.7109775,45.1879923
Full-Stack Software Engineer,https://fr.indeed.com/voir-emploi?t=Full+Stack+Software+Engineer&c=Criteo&l=Grenoble+(38)&jk=86fb651446f06c76&rtk=1eunp6251su3o800&from=rss,"Fri, 31 Jan 2020 10:42:01 GMT",,Moody's Corporation,Grenoble (38),5.7109775,45.1879923
Full-Stack Software Engineer,https://fr.indeed.com/voir-emploi?t=Full+Stack+Software+Engineer&c=Criteo&l=Grenoble+(38)&jk=86fb651446f06c76&rtk=1eunp62pq3jm1000&from=rss,"Fri, 31 Jan 2020 10:42:01 GMT",,Photoweb,Grenoble (38),5.7109775,45.1879923
Full-Stack Software Engineer,https://fr.indeed.com/voir-emploi?t=Full+Stack+Software+Engineer&c=Criteo&l=Grenoble+(38)&jk=86fb651446f06c76&rtk=1eunp63g7stgi800&from=rss,"Fri, 31 Jan 2020 10:42:01 GMT",,Savane Consulting Group,Grenoble (38),5.7109775,45.1879923
Full-Stack Software Engineer,https://fr.indeed.com/voir-emploi?t=Full+Stack+Software+Engineer&c=Criteo&l=Grenoble+(38)&jk=86fb651446f06c76&rtk=1eunp648gstcj800&from=rss,"Fri, 31 Jan 2020 10:42:01 GMT",,"Silvaco, Inc.",Grenoble (38),5.7109775,45.1879923
Full-Stack Software Engineer,https://fr.indeed.com/voir-emploi?t=Full+Stack+Software+Engineer&c=Criteo&l=Grenoble+(38)&jk=86fb651446f06c76&rtk=1eunp68ajsstn800&from=rss,"Fri, 31 Jan 2020 10:42:01 GMT",,SPX FLOW,Grenoble (38),5.7109775,45.1879923
Full-Stack Software Engineer,https://fr.indeed.com/voir-emploi?t=Full+Stack+Software+Engineer&c=Criteo&l=Grenoble+(38)&jk=86fb651446f06c76&rtk=1eunp690istht800&from=rss,"Fri, 31 Jan 2020 10:42:01 GMT",,Supraways,Grenoble (38),5.7109775,45.1879923
Full-Stack Software Engineer,https://fr.indeed.com/voir-emploi?t=Full+Stack+Software+Engineer&c=Criteo&l=Grenoble+(38)&jk=86fb651446f06c76&rtk=1eunp69ks3jm1000&from=rss,"Fri, 31 Jan 2020 10:42:01 GMT",,Ubisoft,Grenoble (38),5.7109775,45.1879923
INDUSTRIAL DEVELOPMENT SPECIALIST,https://fr.indeed.com/voir-emploi?t=Industrial+Development+Specialist&c=MaaT+Pharma&l=Lyon+(69)&jk=96c89bd11ff548a2&rtk=1eunp58j2stmj800&from=rss,"Thu, 07 Jan 2021 20:28:37 GMT",,Aryballe technologies,Lyon (69),4.8150348,45.7688635
Industrial engineering Internship,https://fr.indeed.com/voir-emploi?t=Industrial+Engineering+Internship&c=Persee&l=Lyon+(69)&jk=c74433082c309d3f&rtk=1eunp59ausstn800&from=rss,"Mon, 01 Feb 2021 09:41:36 GMT",,Aryballe technologies,Lyon (69),4.8150348,45.7688635
Ingenieur d'Etude Radiofrequence H/F,https://www.regionsjob.com/emplois/ingenieur-d-etude-radiofrequence-h-f-6439442.html,Expectra,28/01/2021,CDI,Lyon 3e - 69,4.8150348,45.7688635
Ingénieur Préclinique,https://fr.indeed.com/voir-emploi?t=Ing%C3%A9nieur+Pr%C3%A9clinique&c=MaaT+Pharma&l=Lyon+(69)&jk=81452dc963fd8f64&rtk=1eunp57tkstht800&from=rss,"Tue, 12 Jan 2021 15:24:56 GMT",,Aryballe technologies,Lyon (69),4.8150348,45.7688635
INGENIEUR RESEAUX ET SECURITE H/F,https://fr.indeed.com/voir-emploi?t=Ingenieur+Reseaux+Securite&c=Umanis&l=Lyon+(69)&jk=2c43d4d817acf8f8&rtk=1eunp57tkstht800&from=rss,"Mon, 18 Jan 2021 15:10:48 GMT",,Aryballe technologies,Lyon (69),4.8150348,45.7688635
Ingénieur systèmes Linux,https://fr.indeed.com/voir-emploi?t=Ing%C3%A9nieur+Syst%C3%A8mes+Linux&c=PayXpert&l=Lyon+(69)&jk=c824023dbfe1fe30&rtk=1eunp57tkstht800&from=rss,"Fri, 05 Feb 2021 15:26:11 GMT",,Aryballe technologies,Lyon (69),4.8150348,45.7688635
IT PRODUCTION MANAGER M/F,https://fr.indeed.com/voir-emploi?t=IT+Production+Manager+M+F&c=KAYENTIS&l=Meylan+(38)&jk=9c525a6da60b7af5&rtk=1eunp5a3ostok800&from=rss,"Fri, 04 Dec 2020 09:52:42 GMT",,BD,KAYENTIS,5.7878812,45.2067205
IT System Engineer,https://fr.indeed.com/voir-emploi?t=IT+System+Engineer&c=European+Molecular+Biology+Laboratory&l=Grenoble+(38)&jk=cd6e6565342639d5&rtk=1eunp5ar4srho800&from=rss,"Wed, 23 Dec 2020 08:36:44 GMT",,BD,Grenoble (38),5.7109775,45.1879923
Manager Global Product Management (m/f/d),https://fr.indeed.com/voir-emploi?t=Manager+Global+Product+Management&c=TE+Connectivity&l=Lyon+(69)&jk=1321bfa47e4350c7&rtk=1eunp58j2stmj800&from=rss,"Mon, 21 Dec 2020 19:48:56 GMT",,Aryballe technologies,Lyon (69),4.8150348,45.7688635
"Mechanical (Stress, Strain) Engineer",https://fr.indeed.com/voir-emploi?t=Mechanical+Engineer&c=Silvaco&l=Montbonnot-Saint-Martin+(38)&jk=8d2fd0d55c0615c3&rtk=1eunp5a3ostok800&from=rss,"Fri, 20 Nov 2020 18:20:29 GMT",,BD,Montbonnot-Saint-Martin (38),5.80266,45.2264498
Metriks System Roll-out Manager Gypsum & Insulation,https://fr.indeed.com/voir-emploi?t=Metriks+System+Roll+Out+Manager+Gypsum+Insulation&c=Saint-Gobain&l=Chamb%C3%A9ry+(73)&jk=8153c33baa59965e&rtk=1eunp59ausstn800&from=rss,"Thu, 28 Jan 2021 05:11:11 GMT",,Aryballe technologies,Chambéry (73),5.922636,45.564447
Onsite Engineer Level 1,https://fr.indeed.com/voir-emploi?t=Onsite+Engineer+Level&c=Edwards&l=Grenoble+(38)&jk=2a1cf0da034c4e59&rtk=1eunp5ar4srho800&from=rss,"Tue, 10 Nov 2020 21:57:26 GMT",,BD,Grenoble (38),5.7109775,45.1879923
Onsite Engineer Level2,https://fr.indeed.com/voir-emploi?t=Onsite+Engineer&c=Edwards&l=Grenoble+(38)&jk=75ab903ddf0ef7fd&rtk=1eunp5ar4srho800&from=rss,"Tue, 10 Nov 2020 21:57:26 GMT",,BD,Grenoble (38),5.7109775,45.1879923
Permanent contract – Engineer Transport / Mobility,https://fr.indeed.com/voir-emploi?t=Permanent+Contract+Engineer+Transport&c=Supraways&l=Lyon+(69)&jk=df955f1bee8a7411&rtk=1eunp57tkstht800&from=rss,"Thu, 21 Jan 2021 09:33:25 GMT",,Aryballe technologies,Lyon (69),4.8150348,45.7688635
Plant Manager (m/f/d),https://fr.indeed.com/voir-emploi?t=Plant+Manager&c=TE+Connectivity&l=Chassieu+(69)&jk=7f97ae3ba78eecef&rtk=1eunp59ausstn800&from=rss,"Fri, 05 Feb 2021 13:48:53 GMT",,Aryballe technologies,Chassieu (69),4.9681796,45.7422756
Power Market Junior Analyst,https://fr.indeed.com/voir-emploi?t=Power+Market+Junior+Analyst&c=Enerdata&l=Grenoble+(38)&jk=5fce8b4a174a0fed&rtk=1eunp5ar4srho800&from=rss,"Tue, 08 Dec 2020 12:14:23 GMT",,BD,Grenoble (38),5.7109775,45.1879923
PRE-CLINICAL ENGINEER,https://fr.indeed.com/voir-emploi?t=Pre+Clinical+Engineer&c=MaaT+Pharma&l=Lyon+(69)&jk=fa7dc29024e98391&rtk=1eunp57tkstht800&from=rss,"Wed, 13 Jan 2021 10:41:29 GMT",,Aryballe technologies,Lyon (69),4.8150348,45.7688635
Pre-Sales support specialist M/F,https://fr.indeed.com/voir-emploi?t=Pre+Sales+Support+Specialist+M+F&c=ABB&l=Beynost+(01)&jk=fd904d5b83ab7940&rtk=1eunp5732su3o800&from=rss,"Wed, 20 Jan 2021 12:59:18 GMT",,ALSTOM,Beynost (01),5.0009242,45.8400182
Project Manager M/W,https://fr.indeed.com/voir-emploi?t=Project+Manager+M+W&c=Evotec&l=Lyon+(69)&jk=10d2585d6ed9d0b6&rtk=1eunp58j2stmj800&from=rss,"Tue, 05 Jan 2021 15:48:57 GMT",,Aryballe technologies,Lyon (69),4.8150348,45.7688635
QA Automation engineer,https://fr.indeed.com/voir-emploi?t=QA+Automation+Engineer&c=Ubisoft&l=Annecy+(74)&jk=aa6d2ac52c48d185&rtk=1eunp5732su3o800&from=rss,"Fri, 05 Feb 2021 05:36:36 GMT",,ABB,Annecy (74),5.9421851,45.8671312
Quality and Compliance Manager,https://fr.indeed.com/voir-emploi?t=Quality+Compliance+Manager&c=KAYENTIS&l=Grenoble+(38)&jk=a0a3560fe5a49d00&rtk=1eunp5ar4srho800&from=rss,"Thu, 03 Dec 2020 13:27:18 GMT",,BD,KAYENTIS,5.7878812,45.2067205
Quality and Compliance Manager H/F,https://fr.indeed.com/voir-emploi?t=Quality+Compliance+Manager&c=Kayentis&l=Meylan+(38)&jk=cad16bfc3bd5a110&rtk=1eunp5a3ostok800&from=rss,"Wed, 20 Jan 2021 14:35:58 GMT",,BD,Meylan (38),5.7811983,45.2092471
Quality Assurance Engineering Intern (GUI Automatic Test Development),https://fr.indeed.com/voir-emploi?t=Quality+Assurance+Engineering+Intern&c=Moody%27s+Corporation&l=Montbonnot-Saint-Martin+(38)&jk=8262856e53cdd84e&rtk=1eunp5a3ostok800&from=rss,"Fri, 06 Nov 2020 00:02:14 GMT",,BD,Montbonnot-Saint-Martin (38),5.80266,45.2264498
R&D Engineer,https://fr.indeed.com/voir-emploi?t=R+Engineer&c=Synopsys&l=Montbonnot-Saint-Martin+(38)&jk=d4e7a3020044a3a2&rtk=1eunp59ausstn800&from=rss,"Thu, 07 Jan 2021 14:14:07 GMT",,BD,Montbonnot-Saint-Martin (38),5.80266,45.2264498
Research and Development Engineer in Applied Financial Mathematics,https://fr.indeed.com/voir-emploi?t=Research+Development+Engineer+Applied+Financial+Mathematics&c=PULSALYS&l=Lyon+(69)&jk=0bfa317672d0aa24&rtk=1eunp5732su3o800&from=rss,"Fri, 12 Feb 2021 20:04:38 GMT",,Aryballe technologies,Lyon (69),4.8150348,45.7688635
Research Scientist (F/H),https://fr.indeed.com/voir-emploi?t=Research+Scientist&c=Institut+Paul+Bocuse&l=%C3%89cully+(69)&jk=2e8d18b6f0cef034&rtk=1eunp5732su3o800&from=rss,"Fri, 30 Oct 2020 15:36:06 GMT",,Altair Engineering France,Écully (69),4.7785644,45.7754498
Responsable planning Lorette / Rainford,https://fr.indeed.com/voir-emploi?t=Responsable+Planning&c=Unifrax&l=Lorette+(42)&jk=131a9a285e55fa90&rtk=1eunp59ausstn800&from=rss,"Mon, 18 Jan 2021 12:17:38 GMT",,ASYGN,Lorette (42),4.58024,45.509
Responsable Projet MTech bioprocess modelling (H/F),https://fr.indeed.com/voir-emploi?t=Responsable+Projet+Mtech+Bioprocess+Modelling&c=Sanofi&l=Marcy-l%27%C3%89toile+(69)&jk=bbca0ac2b86f3576&rtk=1eunp5732su3o800&from=rss,"Fri, 29 Jan 2021 15:29:34 GMT",,Altair Engineering,Marcy-l'Étoile (69),4.7071338,45.7816572
Scientific software developer,https://fr.indeed.com/voir-emploi?t=Scientific+Software+Developer&c=Altair+Engineering&l=Grenoble+(38)&jk=bec5c1dd6f8fcbf2&rtk=1eunp5ar4srho800&from=rss,"Mon, 21 Dec 2020 18:03:03 GMT",,BD,Grenoble (38),5.7109775,45.1879923
Senior Analog IC Design Engineer,https://fr.indeed.com/voir-emploi?t=Senior+Analog+Ic+Design+Engineer&c=IC+Resources&l=Grenoble+(38)&jk=cdf814c2fed1f5bc&rtk=1eunp5ar4srho800&from=rss,"Tue, 02 Feb 2021 20:09:41 GMT",,BD,Grenoble (38),5.7109775,45.1879923
"Senior AWS Solutions Architect, Startups (France)",https://fr.indeed.com/voir-emploi?t=Senior+Aws+Solutions+Architect&c=AWS+EMEA&l=Lyon+(69)&jk=529fc11becdcfedd&rtk=1eunp58j2stmj800&from=rss,"Wed, 04 Nov 2020 07:53:00 GMT",,Aryballe technologies,Lyon (69),4.8150348,45.7688635
Stage/Alternance : Supplier Risk Management,https://fr.indeed.com/voir-emploi?t=Stage+Alternance&c=BD&l=Le+Pont-de-Claix+(38)&jk=d26ade7fefde4fbd&rtk=1eunp5k7bsstn800&from=rss,"Fri, 05 Feb 2021 11:41:21 GMT",,Confirmé(e),Le Pont-de-Claix (38),5.6978136,45.1236837
Senior Optical Technology Engineer,https://fr.indeed.com/voir-emploi?t=Senior+Optical+Technology+Engineer&c=Viavi+Solutions&l=Saint-%C3%89tienne+(42)&jk=ea61f41d4c49fc91&rtk=1eunp59ausstn800&from=rss,"Mon, 11 Jan 2021 18:39:53 GMT",,AWS EMEA SARL (France Branch),Saint-Étienne (42),4.3873058,45.4401467
Senior Technical Account Manager (EMEA),https://fr.indeed.com/voir-emploi?t=Senior+Technical+Account+Manager&c=AWS+EMEA&l=Lyon+(69)&jk=bd339d74ea6ebfe1&rtk=1eunp58j2stmj800&from=rss,"Tue, 15 Dec 2020 07:52:46 GMT",,Aryballe technologies,Lyon (69),4.8150348,45.7688635
Senior/Lead/Principal Distributed Systems Software Engineer,https://fr.indeed.com/voir-emploi?t=Senior+Lead+Principal+Distributed+Systems+Software+Engineer&c=Salesforce&l=Grenoble+(38)&jk=8d46cf6320cfe160&rtk=1eunp5ar4srho800&from=rss,"Thu, 29 Oct 2020 13:17:30 GMT",,BD,Grenoble (38),5.7109775,45.1879923
Social robots developer (h/f) – STAGE,https://fr.indeed.com/voir-emploi?t=Social+Robots+Developer+Stage&c=Grenoble+Ecole+de+Management&l=Grenoble+(38)&jk=4bb61ab57f7d285b&rtk=1eunp5a3ostok800&from=rss,"Thu, 07 Jan 2021 09:52:31 GMT",,BD,Grenoble (38),5.7109775,45.1879923
Software Application Engineer,https://fr.indeed.com/voir-emploi?t=Software+Application+Engineer&c=ASYGN&l=Grenoble+(38)&jk=ae1818c6e2225c37&rtk=1eunp5ar4srho800&from=rss,"Sat, 12 Dec 2020 02:02:52 GMT",,BD,Grenoble (38),5.7109775,45.1879923
Software Developer Engineer Diffusion,https://fr.indeed.com/voir-emploi?t=Software+Developer+Engineer+Diffusion&c=Silvaco&l=Montbonnot-Saint-Martin+(38)&jk=39840900f6da33a3&rtk=1eunp5a3ostok800&from=rss,"Fri, 20 Nov 2020 18:11:55 GMT",,BD,Montbonnot-Saint-Martin (38),5.80266,45.2264498
Software Engineer Video OTT C/C++ Linux h/f,https://fr.indeed.com/voir-emploi?t=Software+Engineer+Video+Ott+C+C%2B%2B+Linux&c=Selescope&l=Lyon+(69)&jk=7bfcd4da1aea3c3a&rtk=1eunp58j2stmj800&from=rss,"Mon, 07 Dec 2020 17:04:19 GMT",,Aryballe technologies,Lyon (69),4.8150348,45.7688635
Software Engineering Intern,https://fr.indeed.com/voir-emploi?t=Software+Engineering+Intern&c=Moody%27s+Corporation&l=Montbonnot-Saint-Martin+(38)&jk=9556ca1a2c8d48f7&rtk=1eunp5a3ostok800&from=rss,"Thu, 05 Nov 2020 23:59:41 GMT",,BD,Montbonnot-Saint-Martin (38),5.80266,45.2264498
Software Engineering Intern (Banking Cloud),https://fr.indeed.com/voir-emploi?t=Software+Engineering+Intern&c=Moody%27s+Corporation&l=Montbonnot-Saint-Martin+(38)&jk=e98f416408ca34fd&rtk=1eunp5a3ostok800&from=rss,"Thu, 05 Nov 2020 23:58:10 GMT",,BD,Montbonnot-Saint-Martin (38),5.80266,45.2264498
Software Engineering Intern (Metadata Lineage),https://fr.indeed.com/voir-emploi?t=Software+Engineering+Intern&c=Moody%27s+Corporation&l=Montbonnot-Saint-Martin+(38)&jk=49e18bd8acd210c5&rtk=1eunp5a3ostok800&from=rss,"Thu, 05 Nov 2020 23:58:55 GMT",,BD,Montbonnot-Saint-Martin (38),5.80266,45.2264498
Software Engineering Intern (RiskIntegrity for IFRS17),https://fr.indeed.com/voir-emploi?t=Software+Engineering+Intern&c=Moody%27s+Corporation&l=Montbonnot-Saint-Martin+(38)&jk=7ca6835a2a9c04a2&rtk=1eunp5a3ostok800&from=rss,"Fri, 06 Nov 2020 23:59:18 GMT",,BD,Montbonnot-Saint-Martin (38),5.80266,45.2264498
Sr. Design & Modeling Engineer,https://fr.indeed.com/voir-emploi?t=Sr+Design+Modeling+Engineer&c=OWENS+CORNING&l=Chamb%C3%A9ry+(73)&jk=ccd5f6f91cf4a1ac&rtk=1eunp59ausstn800&from=rss,"Fri, 04 Dec 2020 14:21:20 GMT",,ASYGN,Chambéry (73),5.922636,45.564447
Sr. Simulation Software Engineer,https://fr.indeed.com/voir-emploi?t=Sr+Simulation+Software+Engineer&c=Intel&l=Moirans+(38)&jk=c3db7ad64daf6ded&rtk=1eunp59ausstn800&from=rss,"Tue, 26 Jan 2021 11:13:23 GMT",,AWS EMEA SARL (France Branch),Moirans (38),5.5654672,45.3259232
Stage,https://fr.indeed.com/voir-emploi?t=Stage&c=Kitware&l=Lyon+(69)&jk=e7b7d74804af4bca&rtk=1eunp59ausstn800&from=rss,"Tue, 07 Jan 2020 06:38:57 GMT",,Aryballe technologies,Kitware,4.8602214,45.7726097
Stage – Data Analyst Junior – H/F,https://fr.indeed.com/voir-emploi?t=Stage+Data+Analyst+Junior&c=Photoweb&l=Saint-%C3%89gr%C3%A8ve+(38)&jk=b5c17eeef6bd2e0c&rtk=1eunp5a3ostok800&from=rss,"Thu, 11 Feb 2021 17:06:53 GMT",,BD,Saint-Égrève (38),5.681781,45.2325079
STAGE DATA VISUALISATION (H/F),https://fr.indeed.com/voir-emploi?t=Stage+Data+Visualisation&c=Groupe+SEB&l=%C3%89cully+(69)&jk=d7d3cdfbfe455cb0&rtk=1eunp5732su3o800&from=rss,"Mon, 30 Nov 2020 17:55:20 GMT",,Altair Engineering France,Écully (69),4.7785644,45.7754498
Stage/Alternance : Supplier Risk Management,https://fr.indeed.com/voir-emploi?t=Stage+Alternance&c=BD&l=Le+Pont-de-Claix+(38)&jk=d26ade7fefde4fbd&rtk=1eunp5g8ossv8800&from=rss,"Fri, 05 Feb 2021 11:41:21 GMT",,BD,Le Pont-de-Claix (38),5.6978136,45.1236837
Stage/Alternance : Supplier Risk Management,https://fr.indeed.com/voir-emploi?t=Stage+Alternance&c=BD&l=Le+Pont-de-Claix+(38)&jk=d26ade7fefde4fbd&rtk=1eunp5jiv3jm1000&from=rss,"Fri, 05 Feb 2021 11:41:21 GMT",,Confirmé(e),Le Pont-de-Claix (38),5.6978136,45.1236837
Stage/Alternance : Supplier Risk Management,https://fr.indeed.com/voir-emploi?t=Stage+Alternance&c=BD&l=Le+Pont-de-Claix+(38)&jk=d26ade7fefde4fbd&rtk=1eunp5p2ass79800&from=rss,"Fri, 05 Feb 2021 11:41:21 GMT",,Criteo,Le Pont-de-Claix (38),5.6978136,45.1236837
Stage/Alternance : Supplier Risk Management,https://fr.indeed.com/voir-emploi?t=Stage+Alternance&c=BD&l=Le+Pont-de-Claix+(38)&jk=d26ade7fefde4fbd&rtk=1eunp5possrho800&from=rss,"Fri, 05 Feb 2021 11:41:21 GMT",,Edwards SAS,Le Pont-de-Claix (38),5.6978136,45.1236837
Stage/Alternance : Supplier Risk Management,https://fr.indeed.com/voir-emploi?t=Stage+Alternance&c=BD&l=Le+Pont-de-Claix+(38)&jk=d26ade7fefde4fbd&rtk=1eunp5qegstec800&from=rss,"Fri, 05 Feb 2021 11:41:21 GMT",,ForgeRock,Le Pont-de-Claix (38),5.6978136,45.1236837
Stage/Alternance : Supplier Risk Management,https://fr.indeed.com/voir-emploi?t=Stage+Alternance&c=BD&l=Le+Pont-de-Claix+(38)&jk=d26ade7fefde4fbd&rtk=1eunp5unhstgi800&from=rss,"Fri, 05 Feb 2021 11:41:21 GMT",,FormFactor GmbH,Le Pont-de-Claix (38),5.6978136,45.1236837
Stage/Alternance : Supplier Risk Management,https://fr.indeed.com/voir-emploi?t=Stage+Alternance&c=BD&l=Le+Pont-de-Claix+(38)&jk=d26ade7fefde4fbd&rtk=1eunp5vegsu3o800&from=rss,"Fri, 05 Feb 2021 11:41:21 GMT",,Groupe SEB,Le Pont-de-Claix (38),5.6978136,45.1236837
Stage/Alternance : Supplier Risk Management,https://fr.indeed.com/voir-emploi?t=Stage+Alternance&c=BD&l=Le+Pont-de-Claix+(38)&jk=d26ade7fefde4fbd&rtk=1eunp604rstcj801&from=rss,"Fri, 05 Feb 2021 11:41:21 GMT",,Kaïbee,Le Pont-de-Claix (38),5.6978136,45.1236837
Stage/Alternance : Supplier Risk Management,https://fr.indeed.com/voir-emploi?t=Stage+Alternance&c=BD&l=Le+Pont-de-Claix+(38)&jk=d26ade7fefde4fbd&rtk=1eunp60qusstn800&from=rss,"Fri, 05 Feb 2021 11:41:21 GMT",,Konecranes,Le Pont-de-Claix (38),5.6978136,45.1236837
Stage/Alternance : Supplier Risk Management,https://fr.indeed.com/voir-emploi?t=Stage+Alternance&c=BD&l=Le+Pont-de-Claix+(38)&jk=d26ade7fefde4fbd&rtk=1eunp61g4ss79800&from=rss,"Fri, 05 Feb 2021 11:41:21 GMT",,MaaT Pharma,Le Pont-de-Claix (38),5.6978136,45.1236837
Stage/Alternance : Supplier Risk Management,https://fr.indeed.com/voir-emploi?t=Stage+Alternance&c=BD&l=Le+Pont-de-Claix+(38)&jk=d26ade7fefde4fbd&rtk=1eunp6251su3o800&from=rss,"Fri, 05 Feb 2021 11:41:21 GMT",,Moody's Corporation,Le Pont-de-Claix (38),5.6978136,45.1236837
Stage/Alternance : Supplier Risk Management,https://fr.indeed.com/voir-emploi?t=Stage+Alternance&c=BD&l=Le+Pont-de-Claix+(38)&jk=d26ade7fefde4fbd&rtk=1eunp62pq3jm1000&from=rss,"Fri, 05 Feb 2021 11:41:21 GMT",,Process and tools engineer,Le Pont-de-Claix (38),5.6978136,45.1236837
Stage/Alternance : Supplier Risk Management,https://fr.indeed.com/voir-emploi?t=Stage+Alternance&c=BD&l=Le+Pont-de-Claix+(38)&jk=d26ade7fefde4fbd&rtk=1eunp63g7stgi800&from=rss,"Fri, 05 Feb 2021 11:41:21 GMT",,Schneider Electric,Le Pont-de-Claix (38),5.6978136,45.1236837
Stage/Alternance : Supplier Risk Management,https://fr.indeed.com/voir-emploi?t=Stage+Alternance&c=BD&l=Le+Pont-de-Claix+(38)&jk=d26ade7fefde4fbd&rtk=1eunp648gstcj800&from=rss,"Fri, 05 Feb 2021 11:41:21 GMT",,"Silvaco, Inc.",Le Pont-de-Claix (38),5.6978136,45.1236837
Stage/Alternance : Supplier Risk Management,https://fr.indeed.com/voir-emploi?t=Stage+Alternance&c=BD&l=Le+Pont-de-Claix+(38)&jk=d26ade7fefde4fbd&rtk=1eunp68ajsstn800&from=rss,"Fri, 05 Feb 2021 11:41:21 GMT",,SPX FLOW,Le Pont-de-Claix (38),5.6978136,45.1236837
Lead DeveloppeurNet - Angular H/F,https://www.regionsjob.com/emplois/lead-developpeurnet-angular-h-f-6368153.html,SQLI,25/01/2021,CDI,Lyon 9e - 69,4.8150348,45.7688635
Stage/Alternance : Supplier Risk Management,https://fr.indeed.com/voir-emploi?t=Stage+Alternance&c=BD&l=Le+Pont-de-Claix+(38)&jk=d26ade7fefde4fbd&rtk=1eunp690istht800&from=rss,"Fri, 05 Feb 2021 11:41:21 GMT",,SWORD,Le Pont-de-Claix (38),5.6978136,45.1236837
Stage/Alternance : Supplier Risk Management,https://fr.indeed.com/voir-emploi?t=Stage+Alternance&c=BD&l=Le+Pont-de-Claix+(38)&jk=d26ade7fefde4fbd&rtk=1eunp69ks3jm1000&from=rss,"Fri, 05 Feb 2021 11:41:21 GMT",,Ubisoft,Le Pont-de-Claix (38),5.6978136,45.1236837
Student internship – Writing / Proofreading / Translating technical documentation (M/W),https://fr.indeed.com/voir-emploi?t=Student+Internship+Writing&c=Altair+Engineering&l=Grenoble+(38)&jk=5f7e3bba5fd38fe3&rtk=1eunp5ar4srho800&from=rss,"Thu, 22 Oct 2020 18:02:52 GMT",,BD,Grenoble (38),5.7109775,45.1879923
Student internship – Writing / Proofreading / Translating technical documentation (M/W) – 6 months,https://fr.indeed.com/voir-emploi?t=Student+Internship+Writing&c=Altair+Engineering+France&l=Grenoble+(38)&jk=c7b1773e1b76b32c&rtk=1eunp5ar4srho800&from=rss,"Thu, 22 Oct 2020 18:28:37 GMT",,BD,Grenoble (38),5.7109775,45.1879923
Tech & Tools programmer,https://fr.indeed.com/voir-emploi?t=Technologie+Tools+Programmer&c=Ubisoft&l=Annecy+(74)&jk=e60a2ea35723ff77&rtk=1eunp5732su3o800&from=rss,"Fri, 05 Feb 2021 05:36:36 GMT",,Adisseo,Annecy (74),5.9421851,45.8671312
Technical Consultant,https://fr.indeed.com/voir-emploi?t=Technical+Consultant&c=Antidot&l=Lyon+(69)&jk=3ed95ef62a7f018e&rtk=1eunp5732su3o800&from=rss,"Sun, 21 Apr 2019 14:55:02 GMT",,Aryballe technologies,Lyon (69),4.8150348,45.7688635
Technology Project Manager M/F,https://fr.indeed.com/voir-emploi?t=Technology+Project+Manager+M+F&c=STMicroelectronics&l=Crolles+(38)&jk=c7d349d14a57ac63&rtk=1eunp59ausstn800&from=rss,"Thu, 11 Feb 2021 11:03:06 GMT",,Axance,Crolles (38),5.8839432,45.2845907
Test Engineer,https://fr.indeed.com/voir-emploi?t=Test+Engineer&c=ForgeRock&l=Grenoble+(38)&jk=7ff30274c850e1b5&rtk=1eunp5ar4srho800&from=rss,"Mon, 23 Nov 2020 14:36:19 GMT",,BD,Grenoble (38),5.7109775,45.1879923
UX Design Intern,https://fr.indeed.com/voir-emploi?t=Ux+Design+Intern&c=Moody%27s+Corporation&l=Montbonnot-Saint-Martin+(38)&jk=b4ce1cb06c4cd326&rtk=1eunp5a3ostok800&from=rss,"Thu, 05 Nov 2020 23:59:37 GMT",,BD,Montbonnot-Saint-Martin (38),5.80266,45.2264498
Data Engineer expérimenté     (H/F),https://candidat.pole-emploi.fr/offres/recherche/detail/110NJHX,2021-02-17T11:08:15.000Z,CDI,THELIO,69 - LYON 03,4.813591020568037,45.719189400000005
DÉVELOPPEUR PROJET BIG DATA (H/F),https://candidat.pole-emploi.fr/offres/recherche/detail/0711472,2021-02-16T05:48:08.000Z,CDI,Lab'solutec,69 - LYON 01,4.815275342402131,45.7212678
INGÉNIEUR BIG DATA (H/F),https://candidat.pole-emploi.fr/offres/recherche/detail/0711362,2021-02-16T05:47:42.000Z,CDI,voir annonce,69 - LYON 01,4.815275342402131,45.7212678
Ingénieur Devops Data F/H (H/F),https://candidat.pole-emploi.fr/offres/recherche/detail/0689291,2021-02-15T16:16:02.000Z,CDI,Fed It,69 - LYON 01,4.815275342402131,45.7212678
Consultant Data et BI Lyon F/H  (H/F),https://candidat.pole-emploi.fr/offres/recherche/detail/109CVQG,2021-01-08T15:43:35.000Z,CDI,THELIO,69 - LYON 01,4.815275342402131,45.7212678
Data Engineer expérimenté     (H/F),https://candidat.pole-emploi.fr/offres/recherche/detail/110NJHX,2021-02-17T11:08:15.000Z,CDI,THELIO,69 - LYON 03,4.813591020568037,45.719189400000005
Data Analyst (H/F),https://candidat.pole-emploi.fr/offres/recherche/detail/0691443,2021-02-15T16:49:23.000Z,CDI,voir annonce,69 - LYON 01,4.815275342402131,45.7212678
Data Financial Analyst H/F,https://candidat.pole-emploi.fr/offres/recherche/detail/0464916,2021-02-10T06:46:36.000Z,CDI,voir annonce,69 - Rhône,4.6120683469202355,45.880291850000006
Ingénieur Data H/F,https://candidat.pole-emploi.fr/offres/recherche/detail/109MDPV,2021-01-19T10:53:30.000Z,CDI,EFFEKTIV,69 - VILLEURBANNE,4.886899,45.7733124
Data analyst - ( R ou Python) Lyon (IT) (H/F),https://candidat.pole-emploi.fr/offres/recherche/detail/9447702,2021-01-15T22:08:54.000Z,CDI,voir annonce,69 - LYON 01,4.815275342402131,45.7212678
Data Insight Coordinator (H/F),https://candidat.pole-emploi.fr/offres/recherche/detail/108FQQF,2020-12-07T15:51:10.000Z,CDD,IVORY TOWER,69 - VILLEURBANNE,4.886899,45.7733124
Développeur·Se Big Data H/F,https://www.regionsjob.com/emplois/developpeurse-big-data-h-f-6371775.html,Sword France,25/01/2021,CDI,Lyon 1er - 69,4.8150348,45.7688635
- Développeur Fullstack Confirmé - Startup Data - Blockchain ?? H/F,https://www.regionsjob.com/emplois/developpeur-fullstack-confirme-startup-data-blockchain-h-f-6698117.html,KatchMe,il y a 6 heures,CDI,Lyon - 69,4.8150348,45.7688635
Développeur SAP Bw - Bw4hana H/F,https://www.regionsjob.com/emplois/developpeur-sap-bw-bw4hana-h-f-5493369.html,Business & Décision,09/02/2021,CDI,Lyon - 69,4.8150348,45.7688635
Développeur Magento H/F,https://www.regionsjob.com/emplois/developpeur-magento-h-f-6029828.html,Business & Décision,23/01/2021,CDI,Lyon - 69,4.8150348,45.7688635
Chief Data Officer H/F,https://www.regionsjob.com/emplois/chief-data-officer-h-f-6419760.html,Groupe Avem,27/01/2021,CDI,Lyon 7e - 69,-117.8300789043524,33.607990965824236
Stagiaire - Data Scientist Fullstack H/F,https://www.regionsjob.com/emplois/stagiaire-data-scientist-fullstack-h-f-6477656.html,Boralex,01/02/2021,Stage,Lyon - 69,4.8150348,45.7688635
Lead Fullstack Developer Node - React H/F,https://www.regionsjob.com/emplois/lead-fullstack-developer-node-react-h-f-6506770.html,Expectra,03/02/2021,CDI,Lyon 2e ,4.8273739,45.7511118
Administrateur Dataops H/F,https://www.regionsjob.com/emplois/administrateur-dataops-h-f-6182673.html,Kobaltt,10/02/2021,CDI,Lyon - 69,4.8150348,45.7688635
Ingenieur Devops Data H/F,https://www.regionsjob.com/emplois/ingenieur-devops-data-h-f-5529691.html,Mister Auto,14/02/2021,CDI,Villeurbanne - 69,4.886899,45.7733124
Architecte Data H/F,https://www.regionsjob.com/emplois/architecte-data-h-f-5989999.html,Hardis Group,20/01/2021,CDI,Lyon 7e,4.84189,45.7457551
Data Engineer H/F,https://www.regionsjob.com/emplois/data-engineer-h-f-6554523.html,Talan,05/02/2021,CDI,Lyon - 69,4.8150348,45.7688635
Data Engineer Réf Jm69lyn H/F,https://www.regionsjob.com/emplois/data-engineer-ref-jm69lyn-h-f-6688865.html,Havana IT & Apps,hier,CDI,Lyon - 69,4.8150348,45.7688635
Développeur Back Ruby Expérimenté H/F,https://www.regionsjob.com/emplois/developpeur-back-ruby-experimente-h-f-6639696.html,Effektiv,12/02/2021,CDI,Lyon - 69,4.8150348,45.7688635
Data Scientist H/F,https://www.regionsjob.com/emplois/data-scientist-h-f-6667892.html,Expleo,15/02/2021,CDI,Lyon - 69,4.8150348,45.7688635
Architecte Big Data H/F,https://www.regionsjob.com/emplois/architecte-big-data-h-f-6374048.html,Sword France,25/01/2021,CDI,Lyon 1er - 69,4.8150348,45.7688635
Manager Commercial Technologies pour Mobilités Douces H/F,https://www.regionsjob.com/emplois/manager-commercial-technologies-pour-mobilites-douces-h-f-6592695.html,Eco Compteur,09/02/2021,CDI,Lyon - 69,4.8150348,45.7688635
Développeur Dotnet Expérimenté H/F,https://www.regionsjob.com/emplois/developpeur-dotnet-experimente-h-f-6603216.html,IT Link,10/02/2021,CDI,Lyon 1er - 69,4.8150348,45.7688635
Alternant Expert Informatique H/F,https://www.regionsjob.com/emplois/alternant-expert-informatique-h-f-5211855.html,Epitech,11/02/2021,Alternance,Lyon - 69,4.8150348,45.7688635
Développeur Front Expérimenté H/F,https://www.regionsjob.com/emplois/developpeur-front-experimente-h-f-6372069.html,Sword France,25/01/2021,CDI,Lyon 1er - 69,4.8150348,45.7688635
Développeur·Se Fullstack Expérimenté·E H/F,https://www.regionsjob.com/emplois/developpeurse-fullstack-experimentee-h-f-6373390.html,Sword France,25/01/2021,CDI,Lyon 1er - 69,4.8150348,45.7688635
Lead-Développeur Iot H/F,https://www.regionsjob.com/emplois/lead-developpeur-iot-h-f-6373493.html,Sword France,25/01/2021,CDI,Lyon 1er - 69,4.8150348,45.7688635
Data Scientist H/F,https://www.regionsjob.com/emplois/data-scientist-h-f-6360525.html,Adecco,23/01/2021,CDI,Villeurbanne - 69,4.886899,45.7733124
Consultant Digital Analytics H/F,https://www.regionsjob.com/emplois/consultant-digital-analytics-h-f-6535037.html,SQLI,04/02/2021,CDI,Lyon 9e - 69,4.8150348,45.7688635
Développeurs PHP Symfony Confirmés H/F,https://www.regionsjob.com/emplois/developpeurs-php-symfony-confirmes-h-f-5648217.html,Havana IT & Apps,24/01/2021,CDI,Lyon - 69,4.8150348,45.7688635
Devops H/F,https://www.regionsjob.com/emplois/devops-h-f-5648356.html,Havana IT & Apps,24/01/2021,CDI,Lyon - 69,4.8150348,45.7688635
Digital Product Manager H/F,https://www.regionsjob.com/emplois/digital-product-manager-h-f-6401969.html,Fives Intralogistics S.A.S,26/01/2021,CDI,Chasse-sur-Rhône - 38,4.8114503,45.5789437
Développeur Angular H/F,https://www.regionsjob.com/emplois/developpeur-angular-h-f-5648207.html,Havana IT & Apps,24/01/2021,CDI,Lyon - 69,4.8150348,45.7688635
Développeur Java J2EE H/F,https://www.regionsjob.com/emplois/developpeur-java-j2ee-h-f-5648381.html,Havana IT & Apps,24/01/2021,CDI,Lyon - 69,4.8150348,45.7688635
Analyste Fonctionnel H/F,https://www.regionsjob.com/emplois/analyste-fonctionnel-h-f-5648384.html,Havana IT & Apps,24/01/2021,CDI,Lyon - 69,4.8150348,45.7688635
Stagiaire Développement Site Ecommerce - PHP - Magento H/F,https://www.regionsjob.com/emplois/stagiaire-developpement-site-ecommerce-php-magento-h-f-6309180.html,SQLI,20/01/2021,Stage,Lyon 9e - 69,4.8150348,45.7688635
Experts Wan - Sdwan H/F,https://www.regionsjob.com/emplois/experts-wan-sdwan-h-f-6295261.html,Bouygues Telecom,19/01/2021,CDI,Lyon - 69,4.8150348,45.7688635
DéveloppeurNet Fullstack H/F,https://www.regionsjob.com/emplois/developpeurnet-fullstack-h-f-6373622.html,Sword France,25/01/2021,CDI,Lyon 1er - 69,4.8150348,45.7688635
Développeur PHP Symfony Expérimenté H/F,https://www.regionsjob.com/emplois/developpeur-php-symfony-experimente-h-f-6371541.html,Sword France,25/01/2021,CDI,Lyon 1er - 69,4.8150348,45.7688635
Chef de Marché H/F,https://www.regionsjob.com/emplois/chef-de-marche-h-f-6336928.html,Folan,21/01/2021,CDI,Rillieux-la-Pape - 69,4.8994366,45.823514
Ingénieur Système Linux - Unix H/F,https://www.regionsjob.com/emplois/ingenieur-systeme-linux-unix-h-f-5648389.html,Havana IT & Apps,24/01/2021,CDI,Lyon - 69,4.8150348,45.7688635
Chef de Projet IT H/F,https://www.regionsjob.com/emplois/chef-de-projet-it-h-f-6356550.html,April Courtage,22/01/2021,CDI,Lyon - 69,4.8150348,45.7688635
Administrateur Système & Réseau H/F,https://www.regionsjob.com/emplois/administrateur-systeme-et-reseau-h-f-5648347.html,Havana IT & Apps,24/01/2021,CDI,Lyon - 69,4.8150348,45.7688635
Master Informatique H/F,https://www.regionsjob.com/emplois/master-informatique-h-f-6681653.html,RTE,16/02/2021,"Alternance
                            - 18 mois",Jonage - 69,5.0475625,45.7965175
Ingénieur Réseaux & Sécurité Réf Lf69 H/F,https://www.regionsjob.com/emplois/ingenieur-reseaux-et-securite-ref-lf69-h-f-5648336.html,Havana IT & Apps,24/01/2021,CDI,Lyon - 69,4.8150348,45.7688635
Lead-Developpeur Front-End H/F,https://www.regionsjob.com/emplois/lead-developpeur-front-end-h-f-6371387.html,Sword France,25/01/2021,CDI,Lyon 1er - 69,4.8150348,45.7688635
Consultant MOE Débutant Accepté H/F,https://www.regionsjob.com/emplois/consultant-moe-debutant-accepte-h-f-6372977.html,Sword France,25/01/2021,CDI,Lyon 1er - 69,4.8150348,45.7688635
Ingénieur d'Affaires H/F,https://www.regionsjob.com/emplois/ingenieur-d-affaires-h-f-6294615.html,BlueBearsIT,19/01/2021,CDI,Lyon - Saint-Didier-au-Mont-d'Or - 69,4.7979353,45.8115147
Ingénieur Solution - Software Engineer Cloud Aws H/F,https://www.regionsjob.com/emplois/ingenieur-solution-software-engineer-cloud-aws-h-f-6431986.html,Resmed,28/01/2021,CDI,Saint-Priest - 69,4.9441635,45.6965347
Data - Business Analyst Finance & Sales H/F,https://www.regionsjob.com/emplois/data-business-analyst-finance-et-sales-h-f-6611983.html,biomerieux,11/02/2021,CDI,Craponne - 69,4.7231057,45.743476
Ingénieur en Développement Logiciel H/F,https://www.regionsjob.com/emplois/ingenieur-en-developpement-logiciel-h-f-6266153.html,Fédération Hospitalière de France,il y a 16 heures,CDI,Lyon - 69,4.8150348,45.7688635
Ingenieurs Développeurs Web Full Stack Java H/F,https://www.regionsjob.com/emplois/ingenieurs-developpeurs-web-full-stack-java-h-f-4927785.html,Informatis,16/02/2021,CDI,Solaize - 69,4.8386564,45.6406079
Data Scientist Nlp Structuration de la Donnée H/F,https://www.regionsjob.com/emplois/data-scientist-nlp-structuration-de-la-donnee-h-f-5720168.html,Fédération Hospitalière de France,29/01/2021,CDI,Lyon - 69,4.8150348,45.7688635
Senior Technical Account Manager Emea H/F,https://www.regionsjob.com/emplois/senior-technical-account-manager-emea-h-f-5918303.html,Amazon,14/02/2021,"CDI
                                                    - Temps partiel",Lyon 1er - 69,4.8150348,45.7688635
Spécialiste Master Data H/F,https://www.regionsjob.com/emplois/specialiste-master-data-h-f-6611442.html,biomerieux,11/02/2021,Intérim,Craponne - 69,4.7231057,45.743476
Architecte Cloud Réseaux et Sécurité Confirmé H/F,https://www.regionsjob.com/emplois/architecte-cloud-reseaux-et-securite-confirme-h-f-5763720.html,Orinox,01/02/2021,CDI,Vaulx-en-Velin - 69,4.9206153,45.7784255
Stagiaire Charge de Projet Laboratoire Physicochimie H/F,https://www.regionsjob.com/emplois/stagiaire-charge-de-projet-laboratoire-physicochimie-h-f-6689212.html,sanofi,il y a 13 heures,Stage,Lyon 1er - 69,4.8150348,45.7688635
Product Owner H/F,https://www.regionsjob.com/emplois/product-owner-h-f-5620401.html,Niji,23/01/2021,CDI,Lyon 1er - 69,4.8150348,45.7688635
Ingenieur Commercial - Commercialisation aux Entreprises Operateurs Collectifs et Collectivites H/F,https://www.regionsjob.com/emplois/ingenieur-commercial-commercialisation-aux-entreprises-operateurs-collectifs-et-collectivites-h-f-6381495.html,SFR Business,26/01/2021,CDI,Lyon 1er - 69,4.8150348,45.7688635
Contrôleur Financier H/F,https://www.regionsjob.com/emplois/controleur-financier-h-f-6611473.html,biomerieux,11/02/2021,CDI,Marcy-l'Étoile - 69,4.7071338,45.7816572
Ingénieur Devops H/F,https://www.regionsjob.com/emplois/ingenieur-devops-h-f-6366124.html,Devoteam,25/01/2021,CDI,Lyon 1er - 69,4.8150348,45.7688635
Devops - Ingenieur Infrastructures du Si H/F,https://www.regionsjob.com/emplois/devops-ingenieur-infrastructures-du-si-h-f-6613061.html,lasecurecrute,11/02/2021,CDI,Lyon 1er - 69,4.8150348,45.7688635
Consultant en Transformation Digitale H/F,https://www.regionsjob.com/emplois/consultant-en-transformation-digitale-h-f-5616702.html,Devoteam,23/01/2021,CDI,Lyon 1er - 69,4.8150348,45.7688635
Regional Program Manager Community Operations - Logistics H/F,https://www.regionsjob.com/emplois/regional-program-manager-community-operations-logistics-h-f-6381488.html,Amazon,26/01/2021,"CDI
                                                    - Temps partiel",Lyon 1er - 69,4.8150348,45.7688635
Axance - Ux Designer H/F,https://www.regionsjob.com/emplois/axance-ux-designer-h-f-5616744.html,Devoteam,23/01/2021,CDI,Lyon 1er - 69,4.8150348,45.7688635
Chef de Projet CRM & Digital H/F,https://www.regionsjob.com/emplois/chef-de-projet-crm-et-digital-h-f-6020941.html,NAOS,23/01/2021,CDI,Rhône - 69,4.6120683469202355,45.880291850000006
Ingénieur Devops Data H/F,https://www.regionsjob.com/emplois/ingenieur-devops-data-h-f-6481294.html,Fed IT,01/02/2021,CDI,Lyon 3e - 69,4.8150348,45.7688635
Data Financial Analyst H/F,https://www.regionsjob.com/emplois/data-financial-analyst-h-f-6420881.html,Michael Page,27/01/2021,CDI,Lyon 1er - 69,4.8150348,45.7688635
Data Analyst H/F,https://www.regionsjob.com/emplois/data-analyst-h-f-6629287.html,Ubisoft,12/02/2021,CDI,Lyon 1er - 69,4.8150348,45.7688635
Data - Business Analyst Finance & Sales H/F,https://www.regionsjob.com/emplois/data-business-analyst-finance-et-sales-h-f-6611983.html,biomerieux,11/02/2021,CDI,Craponne - 69,4.7231057,45.743476
Data Analyst H/F,https://www.regionsjob.com/emplois/data-analyst-h-f-6593660.html,Cette entreprise souhaite rester anonyme,09/02/2021,CDI,Lyon - 69,4.8150348,45.7688635
Marketing Automation Manager H/F,https://www.regionsjob.com/emplois/marketing-automation-manager-h-f-6294445.html,Prismea,19/01/2021,CDI,Lyon - 69,4.8150348,45.7688635
Business Analyst Confirmed In ERP Context Roll Out H/F,https://www.regionsjob.com/emplois/business-analyst-confirmed-in-erp-context-roll-out-h-f-6627425.html,Siderlog,11/02/2021,CDI,Lyon - 69,4.8150348,45.7688635
Business Analyst H/F,https://www.regionsjob.com/emplois/business-analyst-h-f-5617213.html,Niji,23/01/2021,CDI,Lyon 1er - 69,4.8150348,45.7688635
Data Scientist H/F,https://www.regionsjob.com/emplois/data-scientist-h-f-6667892.html,Expleo,15/02/2021,CDI,Lyon - 69,4.8150348,45.7688635
Data Scientist H/F,https://www.regionsjob.com/emplois/data-scientist-h-f-6360525.html,Adecco,23/01/2021,CDI,Villeurbanne - 69,4.886899,45.7733124
Stagiaire - Data Scientist Fullstack H/F,https://www.regionsjob.com/emplois/stagiaire-data-scientist-fullstack-h-f-6477656.html,Boralex,01/02/2021,Stage,Lyon - 69,4.8150348,45.7688635
Data Scientist Nlp Structuration de la Donnée H/F,https://www.regionsjob.com/emplois/data-scientist-nlp-structuration-de-la-donnee-h-f-5720168.html,Fédération Hospitalière de France,29/01/2021,CDI,Lyon - 69,4.8150348,45.7688635
Data Analyst H/F,https://www.regionsjob.com/emplois/data-analyst-h-f-6623571.html,Fiducial,11/02/2021,CDI,Lyon - 69,4.8150348,45.7688635
Data Engineer Environnement Santé Medtech H/F,https://www.regionsjob.com/emplois/data-engineer-environnement-sante-medtech-h-f-6103478.html,Relyens,03/02/2021,CDI,Lyon 8e - 69,4.8150348,45.7688635
Data Engineer H/F,https://www.regionsjob.com/emplois/data-engineer-h-f-6554523.html,Talan,05/02/2021,CDI,Lyon - 69,4.8150348,45.7688635
Data Analyst H/F,https://www.regionsjob.com/emplois/data-analyst-h-f-6629287.html,Ubisoft,12/02/2021,CDI,Lyon 1er - 69,4.8150348,45.7688635
Data - Business Analyst Finance & Sales H/F,https://www.regionsjob.com/emplois/data-business-analyst-finance-et-sales-h-f-6611983.html,biomerieux,11/02/2021,CDI,Craponne - 69,4.7231057,45.743476
Data Engineer H/F,https://www.regionsjob.com/emplois/data-engineer-h-f-6642025.html,Davidson Consulting,12/02/2021,CDI,Lyon 6e - 69,4.800873944567477,45.70282745
Data Engineer H/F,https://www.regionsjob.com/emplois/data-engineer-h-f-6554523.html,Talan,05/02/2021,CDI,Lyon - 69,4.8150348,45.7688635
Data Engineer Réf Jm69lyn H/F,https://www.regionsjob.com/emplois/data-engineer-ref-jm69lyn-h-f-6688865.html,Havana IT & Apps,hier,CDI,Lyon - 69,4.8150348,45.7688635
Data Engineer Environnement Santé Medtech H/F,https://www.regionsjob.com/emplois/data-engineer-environnement-sante-medtech-h-f-6103478.html,Relyens,03/02/2021,CDI,Lyon 8e - 69,4.8150348,45.7688635
Cloud Data Engineer - Confirmé H/F,https://www.regionsjob.com/emplois/cloud-data-engineer-confirme-h-f-6027645.html,Business & Décision,23/01/2021,CDI,Lyon - 69,4.8150348,45.7688635
Ingénieur Big Data Télecom H/F,https://www.regionsjob.com/emplois/ingenieur-big-data-telecom-h-f-6696562.html,IT Link,il y a 7 heures,CDI,Lyon 1er - 69,4.8150348,45.7688635
Stagiaire - Big Data - Data Virtualization H/F,https://www.regionsjob.com/emplois/stagiaire-big-data-data-virtualization-h-f-6698383.html,Atos,il y a 5 heures,"Stage
                            - 6 mois",Rhône - 69,4.6120683469202355,45.880291850000006
Développeur·Se Big Data H/F,https://www.regionsjob.com/emplois/developpeurse-big-data-h-f-6371775.html,Sword France,25/01/2021,CDI,Lyon 1er - 69,4.8150348,45.7688635
Practice Manager National Data & IA H/F,https://www.regionsjob.com/emplois/practice-manager-national-data-et-ia-h-f-6471543.html,SII Siège,01/02/2021,CDI,Lyon - 69,4.8150348,45.7688635
Condition Monitoring Data Engineer H/F,https://www.regionsjob.com/emplois/condition-monitoring-data-engineer-h-f-6582482.html,Alstom,09/02/2021,CDI,Villeurbanne - 69,4.886899,45.7733124
Data Engineer H/F,https://www.regionsjob.com/emplois/data-engineer-h-f-5616776.html,Devoteam,23/01/2021,CDI,Lyon 1er - 69,4.8150348,45.7688635
Ingénieur d'Affaires H/F,https://www.regionsjob.com/emplois/ingenieur-d-affaires-h-f-6294615.html,BlueBearsIT,19/01/2021,CDI,Lyon - Saint-Didier-au-Mont-d'Or - 69,4.7979353,45.8115147
Senior Technical Account Manager Emea H/F,https://www.regionsjob.com/emplois/senior-technical-account-manager-emea-h-f-5918303.html,Amazon,14/02/2021,"CDI
                                                    - Temps partiel",Lyon 1er - 69,4.8150348,45.7688635
