info,Link,Entreprise,time,offre,Loc
Développeur·Se Big Data H/F,https://www.regionsjob.com/emplois/developpeurse-big-data-h-f-6371775.html,Sword France,25/01/2021,CDI,Lyon 1er - 69
- Développeur Fullstack Confirmé - Startup Data - Blockchain ?? H/F,https://www.regionsjob.com/emplois/developpeur-fullstack-confirme-startup-data-blockchain-h-f-6698117.html,KatchMe,il y a 6 heures,CDI,Lyon - 69
Développeur SAP Bw - Bw4hana H/F,https://www.regionsjob.com/emplois/developpeur-sap-bw-bw4hana-h-f-5493369.html,Business & Décision,09/02/2021,CDI,Lyon - 69
Développeur Magento H/F,https://www.regionsjob.com/emplois/developpeur-magento-h-f-6029828.html,Business & Décision,23/01/2021,CDI,Lyon - 69
Chief Data Officer H/F,https://www.regionsjob.com/emplois/chief-data-officer-h-f-6419760.html,Groupe Avem,27/01/2021,CDI,Lyon 7e - 69
Stagiaire - Data Scientist Fullstack H/F,https://www.regionsjob.com/emplois/stagiaire-data-scientist-fullstack-h-f-6477656.html,Boralex,01/02/2021,Stage,Lyon - 69
Lead Fullstack Developer Node - React H/F,https://www.regionsjob.com/emplois/lead-fullstack-developer-node-react-h-f-6506770.html,Expectra,03/02/2021,CDI,Lyon 2e 
Administrateur Dataops H/F,https://www.regionsjob.com/emplois/administrateur-dataops-h-f-6182673.html,Kobaltt,10/02/2021,CDI,Lyon - 69
Ingenieur Devops Data H/F,https://www.regionsjob.com/emplois/ingenieur-devops-data-h-f-5529691.html,Mister Auto,14/02/2021,CDI,Villeurbanne - 69
Architecte Data H/F,https://www.regionsjob.com/emplois/architecte-data-h-f-5989999.html,Hardis Group,20/01/2021,CDI,Lyon 7e
Data Engineer H/F,https://www.regionsjob.com/emplois/data-engineer-h-f-6554523.html,Talan,05/02/2021,CDI,Lyon - 69
Data Engineer Réf Jm69lyn H/F,https://www.regionsjob.com/emplois/data-engineer-ref-jm69lyn-h-f-6688865.html,Havana IT & Apps,hier,CDI,Lyon - 69
Développeur Back Ruby Expérimenté H/F,https://www.regionsjob.com/emplois/developpeur-back-ruby-experimente-h-f-6639696.html,Effektiv,12/02/2021,CDI,Lyon - 69
Data Scientist H/F,https://www.regionsjob.com/emplois/data-scientist-h-f-6667892.html,Expleo,15/02/2021,CDI,Lyon - 69
Architecte Big Data H/F,https://www.regionsjob.com/emplois/architecte-big-data-h-f-6374048.html,Sword France,25/01/2021,CDI,Lyon 1er - 69
Manager Commercial Technologies pour Mobilités Douces H/F,https://www.regionsjob.com/emplois/manager-commercial-technologies-pour-mobilites-douces-h-f-6592695.html,Eco Compteur,09/02/2021,CDI,Lyon - 69
Développeur Dotnet Expérimenté H/F,https://www.regionsjob.com/emplois/developpeur-dotnet-experimente-h-f-6603216.html,IT Link,10/02/2021,CDI,Lyon 1er - 69
Alternant Expert Informatique H/F,https://www.regionsjob.com/emplois/alternant-expert-informatique-h-f-5211855.html,Epitech,11/02/2021,Alternance,Lyon - 69
Développeur Front Expérimenté H/F,https://www.regionsjob.com/emplois/developpeur-front-experimente-h-f-6372069.html,Sword France,25/01/2021,CDI,Lyon 1er - 69
Développeur·Se Fullstack Expérimenté·E H/F,https://www.regionsjob.com/emplois/developpeurse-fullstack-experimentee-h-f-6373390.html,Sword France,25/01/2021,CDI,Lyon 1er - 69
Lead DeveloppeurNet - Angular H/F,https://www.regionsjob.com/emplois/lead-developpeurnet-angular-h-f-6368153.html,SQLI,25/01/2021,CDI,Lyon 9e - 69
Responsable d'Intervention Service et Maintenance H/F,https://www.regionsjob.com/emplois/responsable-d-intervention-service-et-maintenance-h-f-6620824.html,Job Link,11/02/2021,CDI,Mions - 69
Chargé de Communication H/F,https://www.regionsjob.com/emplois/charge-de-communication-h-f-6478221.html,Folan,01/02/2021,CDD,Rillieux-la-Pape - 69
Data Engineer H/F,https://www.regionsjob.com/emplois/data-engineer-h-f-6642025.html,Davidson Consulting,12/02/2021,CDI,Lyon 6e - 69
Practice Manager National Data & IA H/F,https://www.regionsjob.com/emplois/practice-manager-national-data-et-ia-h-f-6471543.html,SII Siège,01/02/2021,CDI,Lyon - 69
Développeur Java - Angular H/F,https://www.regionsjob.com/emplois/developpeur-java-angular-h-f-6371023.html,Sword France,25/01/2021,CDI,Lyon 1er - 69
Ingenieur d'Etude Radiofrequence H/F,https://www.regionsjob.com/emplois/ingenieur-d-etude-radiofrequence-h-f-6439442.html,Expectra,28/01/2021,CDI,Lyon 3e - 69
Développeur Frontend H/F,https://www.regionsjob.com/emplois/developpeur-frontend-h-f-5648317.html,Havana IT & Apps,24/01/2021,CDI,Lyon - 69
Lead-Développeur Iot H/F,https://www.regionsjob.com/emplois/lead-developpeur-iot-h-f-6373493.html,Sword France,25/01/2021,CDI,Lyon 1er - 69
Data Scientist H/F,https://www.regionsjob.com/emplois/data-scientist-h-f-6360525.html,Adecco,23/01/2021,CDI,Villeurbanne - 69
Consultant Digital Analytics H/F,https://www.regionsjob.com/emplois/consultant-digital-analytics-h-f-6535037.html,SQLI,04/02/2021,CDI,Lyon 9e - 69
Développeurs PHP Symfony Confirmés H/F,https://www.regionsjob.com/emplois/developpeurs-php-symfony-confirmes-h-f-5648217.html,Havana IT & Apps,24/01/2021,CDI,Lyon - 69
Devops H/F,https://www.regionsjob.com/emplois/devops-h-f-5648356.html,Havana IT & Apps,24/01/2021,CDI,Lyon - 69
Digital Product Manager H/F,https://www.regionsjob.com/emplois/digital-product-manager-h-f-6401969.html,Fives Intralogistics S.A.S,26/01/2021,CDI,Chasse-sur-Rhône - 38
Développeur Angular H/F,https://www.regionsjob.com/emplois/developpeur-angular-h-f-5648207.html,Havana IT & Apps,24/01/2021,CDI,Lyon - 69
Développeur Java J2EE H/F,https://www.regionsjob.com/emplois/developpeur-java-j2ee-h-f-5648381.html,Havana IT & Apps,24/01/2021,CDI,Lyon - 69
Analyste Fonctionnel H/F,https://www.regionsjob.com/emplois/analyste-fonctionnel-h-f-5648384.html,Havana IT & Apps,24/01/2021,CDI,Lyon - 69
Stagiaire Développement Site Ecommerce - PHP - Magento H/F,https://www.regionsjob.com/emplois/stagiaire-developpement-site-ecommerce-php-magento-h-f-6309180.html,SQLI,20/01/2021,Stage,Lyon 9e - 69
Experts Wan - Sdwan H/F,https://www.regionsjob.com/emplois/experts-wan-sdwan-h-f-6295261.html,Bouygues Telecom,19/01/2021,CDI,Lyon - 69
DéveloppeurNet Fullstack H/F,https://www.regionsjob.com/emplois/developpeurnet-fullstack-h-f-6373622.html,Sword France,25/01/2021,CDI,Lyon 1er - 69
Développeur PHP Symfony Expérimenté H/F,https://www.regionsjob.com/emplois/developpeur-php-symfony-experimente-h-f-6371541.html,Sword France,25/01/2021,CDI,Lyon 1er - 69
Chef de Marché H/F,https://www.regionsjob.com/emplois/chef-de-marche-h-f-6336928.html,Folan,21/01/2021,CDI,Rillieux-la-Pape - 69
Ingénieur Système Linux - Unix H/F,https://www.regionsjob.com/emplois/ingenieur-systeme-linux-unix-h-f-5648389.html,Havana IT & Apps,24/01/2021,CDI,Lyon - 69
Chef de Projet IT H/F,https://www.regionsjob.com/emplois/chef-de-projet-it-h-f-6356550.html,April Courtage,22/01/2021,CDI,Lyon - 69
Administrateur Système & Réseau H/F,https://www.regionsjob.com/emplois/administrateur-systeme-et-reseau-h-f-5648347.html,Havana IT & Apps,24/01/2021,CDI,Lyon - 69
Master Informatique H/F,https://www.regionsjob.com/emplois/master-informatique-h-f-6681653.html,RTE,16/02/2021,"Alternance
                            - 18 mois",Jonage - 69
Ingénieur Réseaux & Sécurité Réf Lf69 H/F,https://www.regionsjob.com/emplois/ingenieur-reseaux-et-securite-ref-lf69-h-f-5648336.html,Havana IT & Apps,24/01/2021,CDI,Lyon - 69
Lead-Developpeur Front-End H/F,https://www.regionsjob.com/emplois/lead-developpeur-front-end-h-f-6371387.html,Sword France,25/01/2021,CDI,Lyon 1er - 69
Consultant MOE Débutant Accepté H/F,https://www.regionsjob.com/emplois/consultant-moe-debutant-accepte-h-f-6372977.html,Sword France,25/01/2021,CDI,Lyon 1er - 69
Ingénieur d'Affaires H/F,https://www.regionsjob.com/emplois/ingenieur-d-affaires-h-f-6294615.html,BlueBearsIT,19/01/2021,CDI,Lyon - Saint-Didier-au-Mont-d'Or - 69
Ingénieur Solution - Software Engineer Cloud Aws H/F,https://www.regionsjob.com/emplois/ingenieur-solution-software-engineer-cloud-aws-h-f-6431986.html,Resmed,28/01/2021,CDI,Saint-Priest - 69
Data - Business Analyst Finance & Sales H/F,https://www.regionsjob.com/emplois/data-business-analyst-finance-et-sales-h-f-6611983.html,biomerieux,11/02/2021,CDI,Craponne - 69
Ingénieur en Développement Logiciel H/F,https://www.regionsjob.com/emplois/ingenieur-en-developpement-logiciel-h-f-6266153.html,Fédération Hospitalière de France,il y a 16 heures,CDI,Lyon - 69
Ingenieurs Développeurs Web Full Stack Java H/F,https://www.regionsjob.com/emplois/ingenieurs-developpeurs-web-full-stack-java-h-f-4927785.html,Informatis,16/02/2021,CDI,Solaize - 69
Data Scientist Nlp Structuration de la Donnée H/F,https://www.regionsjob.com/emplois/data-scientist-nlp-structuration-de-la-donnee-h-f-5720168.html,Fédération Hospitalière de France,29/01/2021,CDI,Lyon - 69
Senior Technical Account Manager Emea H/F,https://www.regionsjob.com/emplois/senior-technical-account-manager-emea-h-f-5918303.html,Amazon,14/02/2021,"CDI
                                                    - Temps partiel",Lyon 1er - 69
Spécialiste Master Data H/F,https://www.regionsjob.com/emplois/specialiste-master-data-h-f-6611442.html,biomerieux,11/02/2021,Intérim,Craponne - 69
Architecte Cloud Réseaux et Sécurité Confirmé H/F,https://www.regionsjob.com/emplois/architecte-cloud-reseaux-et-securite-confirme-h-f-5763720.html,Orinox,01/02/2021,CDI,Vaulx-en-Velin - 69
Stagiaire Charge de Projet Laboratoire Physicochimie H/F,https://www.regionsjob.com/emplois/stagiaire-charge-de-projet-laboratoire-physicochimie-h-f-6689212.html,sanofi,il y a 13 heures,Stage,Lyon 1er - 69
Product Owner H/F,https://www.regionsjob.com/emplois/product-owner-h-f-5620401.html,Niji,23/01/2021,CDI,Lyon 1er - 69
Ingenieur Commercial - Commercialisation aux Entreprises Operateurs Collectifs et Collectivites H/F,https://www.regionsjob.com/emplois/ingenieur-commercial-commercialisation-aux-entreprises-operateurs-collectifs-et-collectivites-h-f-6381495.html,SFR Business,26/01/2021,CDI,Lyon 1er - 69
Contrôleur Financier H/F,https://www.regionsjob.com/emplois/controleur-financier-h-f-6611473.html,biomerieux,11/02/2021,CDI,Marcy-l'Étoile - 69
Ingénieur Devops H/F,https://www.regionsjob.com/emplois/ingenieur-devops-h-f-6366124.html,Devoteam,25/01/2021,CDI,Lyon 1er - 69
Devops - Ingenieur Infrastructures du Si H/F,https://www.regionsjob.com/emplois/devops-ingenieur-infrastructures-du-si-h-f-6613061.html,lasecurecrute,11/02/2021,CDI,Lyon 1er - 69
Consultant en Transformation Digitale H/F,https://www.regionsjob.com/emplois/consultant-en-transformation-digitale-h-f-5616702.html,Devoteam,23/01/2021,CDI,Lyon 1er - 69
Regional Program Manager Community Operations - Logistics H/F,https://www.regionsjob.com/emplois/regional-program-manager-community-operations-logistics-h-f-6381488.html,Amazon,26/01/2021,"CDI
                                                    - Temps partiel",Lyon 1er - 69
Axance - Ux Designer H/F,https://www.regionsjob.com/emplois/axance-ux-designer-h-f-5616744.html,Devoteam,23/01/2021,CDI,Lyon 1er - 69
Chef de Projet CRM & Digital H/F,https://www.regionsjob.com/emplois/chef-de-projet-crm-et-digital-h-f-6020941.html,NAOS,23/01/2021,CDI,Rhône - 69
Ingénieur Devops Data H/F,https://www.regionsjob.com/emplois/ingenieur-devops-data-h-f-6481294.html,Fed IT,01/02/2021,CDI,Lyon 3e - 69
Cto H/F,https://www.regionsjob.com/emplois/cto-h-f-6296700.html,HC Resources,19/01/2021,CDI,Lyon - 69
Data Analyst H/F,https://www.regionsjob.com/emplois/data-analyst-h-f-6623571.html,Fiducial,11/02/2021,CDI,Lyon - 69
Data Financial Analyst H/F,https://www.regionsjob.com/emplois/data-financial-analyst-h-f-6420881.html,Michael Page,27/01/2021,CDI,Lyon 1er - 69
Data Analyst H/F,https://www.regionsjob.com/emplois/data-analyst-h-f-6629287.html,Ubisoft,12/02/2021,CDI,Lyon 1er - 69
Data - Business Analyst Finance & Sales H/F,https://www.regionsjob.com/emplois/data-business-analyst-finance-et-sales-h-f-6611983.html,biomerieux,11/02/2021,CDI,Craponne - 69
Data Analyst H/F,https://www.regionsjob.com/emplois/data-analyst-h-f-6593660.html,Cette entreprise souhaite rester anonyme,09/02/2021,CDI,Lyon - 69
Marketing Automation Manager H/F,https://www.regionsjob.com/emplois/marketing-automation-manager-h-f-6294445.html,Prismea,19/01/2021,CDI,Lyon - 69
Business Analyst Confirmed In ERP Context Roll Out H/F,https://www.regionsjob.com/emplois/business-analyst-confirmed-in-erp-context-roll-out-h-f-6627425.html,Siderlog,11/02/2021,CDI,Lyon - 69
Business Analyst H/F,https://www.regionsjob.com/emplois/business-analyst-h-f-5617213.html,Niji,23/01/2021,CDI,Lyon 1er - 69
Data Scientist H/F,https://www.regionsjob.com/emplois/data-scientist-h-f-6667892.html,Expleo,15/02/2021,CDI,Lyon - 69
Data Scientist H/F,https://www.regionsjob.com/emplois/data-scientist-h-f-6360525.html,Adecco,23/01/2021,CDI,Villeurbanne - 69
Stagiaire - Data Scientist Fullstack H/F,https://www.regionsjob.com/emplois/stagiaire-data-scientist-fullstack-h-f-6477656.html,Boralex,01/02/2021,Stage,Lyon - 69
Data Scientist Nlp Structuration de la Donnée H/F,https://www.regionsjob.com/emplois/data-scientist-nlp-structuration-de-la-donnee-h-f-5720168.html,Fédération Hospitalière de France,29/01/2021,CDI,Lyon - 69
Data Analyst H/F,https://www.regionsjob.com/emplois/data-analyst-h-f-6623571.html,Fiducial,11/02/2021,CDI,Lyon - 69
Data Engineer Environnement Santé Medtech H/F,https://www.regionsjob.com/emplois/data-engineer-environnement-sante-medtech-h-f-6103478.html,Relyens,03/02/2021,CDI,Lyon 8e - 69
Data Engineer H/F,https://www.regionsjob.com/emplois/data-engineer-h-f-6554523.html,Talan,05/02/2021,CDI,Lyon - 69
Data Analyst H/F,https://www.regionsjob.com/emplois/data-analyst-h-f-6629287.html,Ubisoft,12/02/2021,CDI,Lyon 1er - 69
Data - Business Analyst Finance & Sales H/F,https://www.regionsjob.com/emplois/data-business-analyst-finance-et-sales-h-f-6611983.html,biomerieux,11/02/2021,CDI,Craponne - 69
Data Engineer H/F,https://www.regionsjob.com/emplois/data-engineer-h-f-6642025.html,Davidson Consulting,12/02/2021,CDI,Lyon 6e - 69
Data Engineer H/F,https://www.regionsjob.com/emplois/data-engineer-h-f-6554523.html,Talan,05/02/2021,CDI,Lyon - 69
Data Engineer Réf Jm69lyn H/F,https://www.regionsjob.com/emplois/data-engineer-ref-jm69lyn-h-f-6688865.html,Havana IT & Apps,hier,CDI,Lyon - 69
Data Engineer Environnement Santé Medtech H/F,https://www.regionsjob.com/emplois/data-engineer-environnement-sante-medtech-h-f-6103478.html,Relyens,03/02/2021,CDI,Lyon 8e - 69
Cloud Data Engineer - Confirmé H/F,https://www.regionsjob.com/emplois/cloud-data-engineer-confirme-h-f-6027645.html,Business & Décision,23/01/2021,CDI,Lyon - 69
Ingénieur Big Data Télecom H/F,https://www.regionsjob.com/emplois/ingenieur-big-data-telecom-h-f-6696562.html,IT Link,il y a 7 heures,CDI,Lyon 1er - 69
Stagiaire - Big Data - Data Virtualization H/F,https://www.regionsjob.com/emplois/stagiaire-big-data-data-virtualization-h-f-6698383.html,Atos,il y a 5 heures,"Stage
                            - 6 mois",Rhône - 69
Développeur·Se Big Data H/F,https://www.regionsjob.com/emplois/developpeurse-big-data-h-f-6371775.html,Sword France,25/01/2021,CDI,Lyon 1er - 69
Practice Manager National Data & IA H/F,https://www.regionsjob.com/emplois/practice-manager-national-data-et-ia-h-f-6471543.html,SII Siège,01/02/2021,CDI,Lyon - 69
Condition Monitoring Data Engineer H/F,https://www.regionsjob.com/emplois/condition-monitoring-data-engineer-h-f-6582482.html,Alstom,09/02/2021,CDI,Villeurbanne - 69
Data Engineer H/F,https://www.regionsjob.com/emplois/data-engineer-h-f-5616776.html,Devoteam,23/01/2021,CDI,Lyon 1er - 69
Ingénieur d'Affaires H/F,https://www.regionsjob.com/emplois/ingenieur-d-affaires-h-f-6294615.html,BlueBearsIT,19/01/2021,CDI,Lyon - Saint-Didier-au-Mont-d'Or - 69
Senior Technical Account Manager Emea H/F,https://www.regionsjob.com/emplois/senior-technical-account-manager-emea-h-f-5918303.html,Amazon,14/02/2021,"CDI
                                                    - Temps partiel",Lyon 1er - 69
