info,Link,time,offre,Entreprise,Loc
Développeur·Se Big Data H/F,https://www.regionsjob.com/emplois/developpeurse-big-data-h-f-6371775.html,25/01/2021,CDI,Sword France,Lyon 1er - 69
- Développeur Fullstack Confirmé - Startup Data - Blockchain ?? H/F,https://www.regionsjob.com/emplois/developpeur-fullstack-confirme-startup-data-blockchain-h-f-6698117.html,il y a 6 heures,CDI,KatchMe,Lyon - 69
Développeur SAP Bw - Bw4hana H/F,https://www.regionsjob.com/emplois/developpeur-sap-bw-bw4hana-h-f-5493369.html,09/02/2021,CDI,Business & Décision,Lyon - 69
Développeur Magento H/F,https://www.regionsjob.com/emplois/developpeur-magento-h-f-6029828.html,23/01/2021,CDI,Business & Décision,Lyon - 69
Chief Data Officer H/F,https://www.regionsjob.com/emplois/chief-data-officer-h-f-6419760.html,27/01/2021,CDI,Groupe Avem,Lyon 7e - 69
Stagiaire - Data Scientist Fullstack H/F,https://www.regionsjob.com/emplois/stagiaire-data-scientist-fullstack-h-f-6477656.html,01/02/2021,Stage,Boralex,Lyon - 69
Lead Fullstack Developer Node - React H/F,https://www.regionsjob.com/emplois/lead-fullstack-developer-node-react-h-f-6506770.html,03/02/2021,CDI,Expectra,Lyon 2e 
Administrateur Dataops H/F,https://www.regionsjob.com/emplois/administrateur-dataops-h-f-6182673.html,10/02/2021,CDI,Kobaltt,Lyon - 69
Ingenieur Devops Data H/F,https://www.regionsjob.com/emplois/ingenieur-devops-data-h-f-5529691.html,14/02/2021,CDI,Mister Auto,Villeurbanne - 69
Architecte Data H/F,https://www.regionsjob.com/emplois/architecte-data-h-f-5989999.html,20/01/2021,CDI,Hardis Group,Lyon 7e
Data Engineer H/F,https://www.regionsjob.com/emplois/data-engineer-h-f-6554523.html,05/02/2021,CDI,Talan,Lyon - 69
Data Engineer Réf Jm69lyn H/F,https://www.regionsjob.com/emplois/data-engineer-ref-jm69lyn-h-f-6688865.html,hier,CDI,Havana IT & Apps,Lyon - 69
Développeur Back Ruby Expérimenté H/F,https://www.regionsjob.com/emplois/developpeur-back-ruby-experimente-h-f-6639696.html,12/02/2021,CDI,Effektiv,Lyon - 69
Data Scientist H/F,https://www.regionsjob.com/emplois/data-scientist-h-f-6667892.html,15/02/2021,CDI,Expleo,Lyon - 69
Architecte Big Data H/F,https://www.regionsjob.com/emplois/architecte-big-data-h-f-6374048.html,25/01/2021,CDI,Sword France,Lyon 1er - 69
Manager Commercial Technologies pour Mobilités Douces H/F,https://www.regionsjob.com/emplois/manager-commercial-technologies-pour-mobilites-douces-h-f-6592695.html,09/02/2021,CDI,Eco Compteur,Lyon - 69
Développeur Dotnet Expérimenté H/F,https://www.regionsjob.com/emplois/developpeur-dotnet-experimente-h-f-6603216.html,10/02/2021,CDI,IT Link,Lyon 1er - 69
Alternant Expert Informatique H/F,https://www.regionsjob.com/emplois/alternant-expert-informatique-h-f-5211855.html,11/02/2021,Alternance,Epitech,Lyon - 69
Développeur Front Expérimenté H/F,https://www.regionsjob.com/emplois/developpeur-front-experimente-h-f-6372069.html,25/01/2021,CDI,Sword France,Lyon 1er - 69
Développeur·Se Fullstack Expérimenté·E H/F,https://www.regionsjob.com/emplois/developpeurse-fullstack-experimentee-h-f-6373390.html,25/01/2021,CDI,Sword France,Lyon 1er - 69
Lead DeveloppeurNet - Angular H/F,https://www.regionsjob.com/emplois/lead-developpeurnet-angular-h-f-6368153.html,25/01/2021,CDI,SQLI,Lyon 9e - 69
Responsable d'Intervention Service et Maintenance H/F,https://www.regionsjob.com/emplois/responsable-d-intervention-service-et-maintenance-h-f-6620824.html,11/02/2021,CDI,Job Link,Mions - 69
Chargé de Communication H/F,https://www.regionsjob.com/emplois/charge-de-communication-h-f-6478221.html,01/02/2021,CDD,Folan,Rillieux-la-Pape - 69
Data Engineer H/F,https://www.regionsjob.com/emplois/data-engineer-h-f-6642025.html,12/02/2021,CDI,Davidson Consulting,Lyon 6e - 69
Practice Manager National Data & IA H/F,https://www.regionsjob.com/emplois/practice-manager-national-data-et-ia-h-f-6471543.html,01/02/2021,CDI,SII Siège,Lyon - 69
Développeur Java - Angular H/F,https://www.regionsjob.com/emplois/developpeur-java-angular-h-f-6371023.html,25/01/2021,CDI,Sword France,Lyon 1er - 69
Ingenieur d'Etude Radiofrequence H/F,https://www.regionsjob.com/emplois/ingenieur-d-etude-radiofrequence-h-f-6439442.html,28/01/2021,CDI,Expectra,Lyon 3e - 69
Développeur Frontend H/F,https://www.regionsjob.com/emplois/developpeur-frontend-h-f-5648317.html,24/01/2021,CDI,Havana IT & Apps,Lyon - 69
Lead-Développeur Iot H/F,https://www.regionsjob.com/emplois/lead-developpeur-iot-h-f-6373493.html,25/01/2021,CDI,Sword France,Lyon 1er - 69
Data Scientist H/F,https://www.regionsjob.com/emplois/data-scientist-h-f-6360525.html,23/01/2021,CDI,Adecco,Villeurbanne - 69
Consultant Digital Analytics H/F,https://www.regionsjob.com/emplois/consultant-digital-analytics-h-f-6535037.html,04/02/2021,CDI,SQLI,Lyon 9e - 69
Développeurs PHP Symfony Confirmés H/F,https://www.regionsjob.com/emplois/developpeurs-php-symfony-confirmes-h-f-5648217.html,24/01/2021,CDI,Havana IT & Apps,Lyon - 69
Devops H/F,https://www.regionsjob.com/emplois/devops-h-f-5648356.html,24/01/2021,CDI,Havana IT & Apps,Lyon - 69
Digital Product Manager H/F,https://www.regionsjob.com/emplois/digital-product-manager-h-f-6401969.html,26/01/2021,CDI,Fives Intralogistics S.A.S,Chasse-sur-Rhône - 38
Développeur Angular H/F,https://www.regionsjob.com/emplois/developpeur-angular-h-f-5648207.html,24/01/2021,CDI,Havana IT & Apps,Lyon - 69
Développeur Java J2EE H/F,https://www.regionsjob.com/emplois/developpeur-java-j2ee-h-f-5648381.html,24/01/2021,CDI,Havana IT & Apps,Lyon - 69
Analyste Fonctionnel H/F,https://www.regionsjob.com/emplois/analyste-fonctionnel-h-f-5648384.html,24/01/2021,CDI,Havana IT & Apps,Lyon - 69
Stagiaire Développement Site Ecommerce - PHP - Magento H/F,https://www.regionsjob.com/emplois/stagiaire-developpement-site-ecommerce-php-magento-h-f-6309180.html,20/01/2021,Stage,SQLI,Lyon 9e - 69
Experts Wan - Sdwan H/F,https://www.regionsjob.com/emplois/experts-wan-sdwan-h-f-6295261.html,19/01/2021,CDI,Bouygues Telecom,Lyon - 69
DéveloppeurNet Fullstack H/F,https://www.regionsjob.com/emplois/developpeurnet-fullstack-h-f-6373622.html,25/01/2021,CDI,Sword France,Lyon 1er - 69
Développeur PHP Symfony Expérimenté H/F,https://www.regionsjob.com/emplois/developpeur-php-symfony-experimente-h-f-6371541.html,25/01/2021,CDI,Sword France,Lyon 1er - 69
Chef de Marché H/F,https://www.regionsjob.com/emplois/chef-de-marche-h-f-6336928.html,21/01/2021,CDI,Folan,Rillieux-la-Pape - 69
Ingénieur Système Linux - Unix H/F,https://www.regionsjob.com/emplois/ingenieur-systeme-linux-unix-h-f-5648389.html,24/01/2021,CDI,Havana IT & Apps,Lyon - 69
Chef de Projet IT H/F,https://www.regionsjob.com/emplois/chef-de-projet-it-h-f-6356550.html,22/01/2021,CDI,April Courtage,Lyon - 69
Administrateur Système & Réseau H/F,https://www.regionsjob.com/emplois/administrateur-systeme-et-reseau-h-f-5648347.html,24/01/2021,CDI,Havana IT & Apps,Lyon - 69
Master Informatique H/F,https://www.regionsjob.com/emplois/master-informatique-h-f-6681653.html,16/02/2021,"Alternance
                            - 18 mois",RTE,Jonage - 69
Ingénieur Réseaux & Sécurité Réf Lf69 H/F,https://www.regionsjob.com/emplois/ingenieur-reseaux-et-securite-ref-lf69-h-f-5648336.html,24/01/2021,CDI,Havana IT & Apps,Lyon - 69
Lead-Developpeur Front-End H/F,https://www.regionsjob.com/emplois/lead-developpeur-front-end-h-f-6371387.html,25/01/2021,CDI,Sword France,Lyon 1er - 69
Consultant MOE Débutant Accepté H/F,https://www.regionsjob.com/emplois/consultant-moe-debutant-accepte-h-f-6372977.html,25/01/2021,CDI,Sword France,Lyon 1er - 69
Ingénieur d'Affaires H/F,https://www.regionsjob.com/emplois/ingenieur-d-affaires-h-f-6294615.html,19/01/2021,CDI,BlueBearsIT,Lyon - Saint-Didier-au-Mont-d'Or - 69
Ingénieur Solution - Software Engineer Cloud Aws H/F,https://www.regionsjob.com/emplois/ingenieur-solution-software-engineer-cloud-aws-h-f-6431986.html,28/01/2021,CDI,Resmed,Saint-Priest - 69
Data - Business Analyst Finance & Sales H/F,https://www.regionsjob.com/emplois/data-business-analyst-finance-et-sales-h-f-6611983.html,11/02/2021,CDI,biomerieux,Craponne - 69
Ingénieur en Développement Logiciel H/F,https://www.regionsjob.com/emplois/ingenieur-en-developpement-logiciel-h-f-6266153.html,il y a 16 heures,CDI,Fédération Hospitalière de France,Lyon - 69
Ingenieurs Développeurs Web Full Stack Java H/F,https://www.regionsjob.com/emplois/ingenieurs-developpeurs-web-full-stack-java-h-f-4927785.html,16/02/2021,CDI,Informatis,Solaize - 69
Data Scientist Nlp Structuration de la Donnée H/F,https://www.regionsjob.com/emplois/data-scientist-nlp-structuration-de-la-donnee-h-f-5720168.html,29/01/2021,CDI,Fédération Hospitalière de France,Lyon - 69
Senior Technical Account Manager Emea H/F,https://www.regionsjob.com/emplois/senior-technical-account-manager-emea-h-f-5918303.html,14/02/2021,"CDI
                                                    - Temps partiel",Amazon,Lyon 1er - 69
Spécialiste Master Data H/F,https://www.regionsjob.com/emplois/specialiste-master-data-h-f-6611442.html,11/02/2021,Intérim,biomerieux,Craponne - 69
Architecte Cloud Réseaux et Sécurité Confirmé H/F,https://www.regionsjob.com/emplois/architecte-cloud-reseaux-et-securite-confirme-h-f-5763720.html,01/02/2021,CDI,Orinox,Vaulx-en-Velin - 69
Stagiaire Charge de Projet Laboratoire Physicochimie H/F,https://www.regionsjob.com/emplois/stagiaire-charge-de-projet-laboratoire-physicochimie-h-f-6689212.html,il y a 13 heures,Stage,sanofi,Lyon 1er - 69
Product Owner H/F,https://www.regionsjob.com/emplois/product-owner-h-f-5620401.html,23/01/2021,CDI,Niji,Lyon 1er - 69
Ingenieur Commercial - Commercialisation aux Entreprises Operateurs Collectifs et Collectivites H/F,https://www.regionsjob.com/emplois/ingenieur-commercial-commercialisation-aux-entreprises-operateurs-collectifs-et-collectivites-h-f-6381495.html,26/01/2021,CDI,SFR Business,Lyon 1er - 69
Contrôleur Financier H/F,https://www.regionsjob.com/emplois/controleur-financier-h-f-6611473.html,11/02/2021,CDI,biomerieux,Marcy-l'Étoile - 69
Ingénieur Devops H/F,https://www.regionsjob.com/emplois/ingenieur-devops-h-f-6366124.html,25/01/2021,CDI,Devoteam,Lyon 1er - 69
Devops - Ingenieur Infrastructures du Si H/F,https://www.regionsjob.com/emplois/devops-ingenieur-infrastructures-du-si-h-f-6613061.html,11/02/2021,CDI,lasecurecrute,Lyon 1er - 69
Consultant en Transformation Digitale H/F,https://www.regionsjob.com/emplois/consultant-en-transformation-digitale-h-f-5616702.html,23/01/2021,CDI,Devoteam,Lyon 1er - 69
Regional Program Manager Community Operations - Logistics H/F,https://www.regionsjob.com/emplois/regional-program-manager-community-operations-logistics-h-f-6381488.html,26/01/2021,"CDI
                                                    - Temps partiel",Amazon,Lyon 1er - 69
Axance - Ux Designer H/F,https://www.regionsjob.com/emplois/axance-ux-designer-h-f-5616744.html,23/01/2021,CDI,Devoteam,Lyon 1er - 69
Chef de Projet CRM & Digital H/F,https://www.regionsjob.com/emplois/chef-de-projet-crm-et-digital-h-f-6020941.html,23/01/2021,CDI,NAOS,Rhône - 69
Ingénieur Devops Data H/F,https://www.regionsjob.com/emplois/ingenieur-devops-data-h-f-6481294.html,01/02/2021,CDI,Fed IT,Lyon 3e - 69
Cto H/F,https://www.regionsjob.com/emplois/cto-h-f-6296700.html,19/01/2021,CDI,HC Resources,Lyon - 69
Data Analyst H/F,https://www.regionsjob.com/emplois/data-analyst-h-f-6623571.html,11/02/2021,CDI,Fiducial,Lyon - 69
Data Financial Analyst H/F,https://www.regionsjob.com/emplois/data-financial-analyst-h-f-6420881.html,27/01/2021,CDI,Michael Page,Lyon 1er - 69
Data Analyst H/F,https://www.regionsjob.com/emplois/data-analyst-h-f-6629287.html,12/02/2021,CDI,Ubisoft,Lyon 1er - 69
Data - Business Analyst Finance & Sales H/F,https://www.regionsjob.com/emplois/data-business-analyst-finance-et-sales-h-f-6611983.html,11/02/2021,CDI,biomerieux,Craponne - 69
Data Analyst H/F,https://www.regionsjob.com/emplois/data-analyst-h-f-6593660.html,09/02/2021,CDI,Cette entreprise souhaite rester anonyme,Lyon - 69
Marketing Automation Manager H/F,https://www.regionsjob.com/emplois/marketing-automation-manager-h-f-6294445.html,19/01/2021,CDI,Prismea,Lyon - 69
Business Analyst Confirmed In ERP Context Roll Out H/F,https://www.regionsjob.com/emplois/business-analyst-confirmed-in-erp-context-roll-out-h-f-6627425.html,11/02/2021,CDI,Siderlog,Lyon - 69
Business Analyst H/F,https://www.regionsjob.com/emplois/business-analyst-h-f-5617213.html,23/01/2021,CDI,Niji,Lyon 1er - 69
Data Scientist H/F,https://www.regionsjob.com/emplois/data-scientist-h-f-6667892.html,15/02/2021,CDI,Expleo,Lyon - 69
Data Scientist H/F,https://www.regionsjob.com/emplois/data-scientist-h-f-6360525.html,23/01/2021,CDI,Adecco,Villeurbanne - 69
Stagiaire - Data Scientist Fullstack H/F,https://www.regionsjob.com/emplois/stagiaire-data-scientist-fullstack-h-f-6477656.html,01/02/2021,Stage,Boralex,Lyon - 69
Data Scientist Nlp Structuration de la Donnée H/F,https://www.regionsjob.com/emplois/data-scientist-nlp-structuration-de-la-donnee-h-f-5720168.html,29/01/2021,CDI,Fédération Hospitalière de France,Lyon - 69
Data Analyst H/F,https://www.regionsjob.com/emplois/data-analyst-h-f-6623571.html,11/02/2021,CDI,Fiducial,Lyon - 69
Data Engineer Environnement Santé Medtech H/F,https://www.regionsjob.com/emplois/data-engineer-environnement-sante-medtech-h-f-6103478.html,03/02/2021,CDI,Relyens,Lyon 8e - 69
Data Engineer H/F,https://www.regionsjob.com/emplois/data-engineer-h-f-6554523.html,05/02/2021,CDI,Talan,Lyon - 69
Data Analyst H/F,https://www.regionsjob.com/emplois/data-analyst-h-f-6629287.html,12/02/2021,CDI,Ubisoft,Lyon 1er - 69
Data - Business Analyst Finance & Sales H/F,https://www.regionsjob.com/emplois/data-business-analyst-finance-et-sales-h-f-6611983.html,11/02/2021,CDI,biomerieux,Craponne - 69
Data Engineer H/F,https://www.regionsjob.com/emplois/data-engineer-h-f-6642025.html,12/02/2021,CDI,Davidson Consulting,Lyon 6e - 69
Data Engineer H/F,https://www.regionsjob.com/emplois/data-engineer-h-f-6554523.html,05/02/2021,CDI,Talan,Lyon - 69
Data Engineer Réf Jm69lyn H/F,https://www.regionsjob.com/emplois/data-engineer-ref-jm69lyn-h-f-6688865.html,hier,CDI,Havana IT & Apps,Lyon - 69
Data Engineer Environnement Santé Medtech H/F,https://www.regionsjob.com/emplois/data-engineer-environnement-sante-medtech-h-f-6103478.html,03/02/2021,CDI,Relyens,Lyon 8e - 69
Cloud Data Engineer - Confirmé H/F,https://www.regionsjob.com/emplois/cloud-data-engineer-confirme-h-f-6027645.html,23/01/2021,CDI,Business & Décision,Lyon - 69
Ingénieur Big Data Télecom H/F,https://www.regionsjob.com/emplois/ingenieur-big-data-telecom-h-f-6696562.html,il y a 7 heures,CDI,IT Link,Lyon 1er - 69
Stagiaire - Big Data - Data Virtualization H/F,https://www.regionsjob.com/emplois/stagiaire-big-data-data-virtualization-h-f-6698383.html,il y a 5 heures,"Stage
                            - 6 mois",Atos,Rhône - 69
Développeur·Se Big Data H/F,https://www.regionsjob.com/emplois/developpeurse-big-data-h-f-6371775.html,25/01/2021,CDI,Sword France,Lyon 1er - 69
Practice Manager National Data & IA H/F,https://www.regionsjob.com/emplois/practice-manager-national-data-et-ia-h-f-6471543.html,01/02/2021,CDI,SII Siège,Lyon - 69
Condition Monitoring Data Engineer H/F,https://www.regionsjob.com/emplois/condition-monitoring-data-engineer-h-f-6582482.html,09/02/2021,CDI,Alstom,Villeurbanne - 69
Data Engineer H/F,https://www.regionsjob.com/emplois/data-engineer-h-f-5616776.html,23/01/2021,CDI,Devoteam,Lyon 1er - 69
Ingénieur d'Affaires H/F,https://www.regionsjob.com/emplois/ingenieur-d-affaires-h-f-6294615.html,19/01/2021,CDI,BlueBearsIT,Lyon - Saint-Didier-au-Mont-d'Or - 69
Senior Technical Account Manager Emea H/F,https://www.regionsjob.com/emplois/senior-technical-account-manager-emea-h-f-5918303.html,14/02/2021,"CDI
                                                    - Temps partiel",Amazon,Lyon 1er - 69
